include { test_skin.res }
include { tank_skin.res }
/* background_img_test */
/* { */
/* 	file { img/background_test.svg } */
/* } */

/* target_img_test */
/* { */
/* 	file { img/target_test.svg } */
/* } */

/* shot_img_test */
/* { */
/* 	file { img/shot_test.svg } */
/* } */

/* ready_img_test */
/* { */
/* 	file { img/ready_test.svg } */
/* } */

/* empty_cell_img_test */
/* { */
/* 	file { img/empty_cell_test.svg } */
/* } */

/* open_numsel_img_test */
/* { */
/* 	file { img/open_numselector_test.svg } */
/* } */

/* hide_numsel_img_test */
/* { */
/* 	file { img/hide_numselector_test.svg } */
/* } */
