<?xml version="1.0" encoding="UTF-8" standalone="no"?>
<svg
   xmlns:dc="http://purl.org/dc/elements/1.1/"
   xmlns:cc="http://creativecommons.org/ns#"
   xmlns:rdf="http://www.w3.org/1999/02/22-rdf-syntax-ns#"
   xmlns:svg="http://www.w3.org/2000/svg"
   xmlns="http://www.w3.org/2000/svg"
   id="svg8"
   version="1.1"
   viewBox="0 0 800 600"
   height="600mm"
   width="800mm">
  <defs
     id="defs2" />
  <metadata
     id="metadata5">
    <rdf:RDF>
      <cc:Work
         rdf:about="">
        <dc:format>image/svg+xml</dc:format>
        <dc:type
           rdf:resource="http://purl.org/dc/dcmitype/StillImage" />
        <dc:title></dc:title>
      </cc:Work>
    </rdf:RDF>
  </metadata>
  <g
     transform="translate(0,303)"
     id="layer1">
    <path
       id="path3715"
       d="M -1.0690781,-16.239877 C 111.22945,1.4586298 225.35236,7.5595334 338.89775,1.9344309 c 90.64081,-4.490397 180.83773,-16.4221439 271.54584,-19.2433839 63.50275,-1.975088 127.14436,0.527665 190.2959,7.4835281"
       style="fill:none;stroke:#000000;stroke-width:1.965;stroke-linecap:butt;stroke-linejoin:miter;stroke-opacity:1;stroke-miterlimit:4;stroke-dasharray:none" />
    <path
       id="path4524"
       d="m 312.57886,-302.75281 c -7.93679,60.93487 -11.51251,122.43734 -10.69078,183.88143 0.72001,53.837439 4.80949,107.591196 5.34538,161.430782 0.85218,85.616458 -7.25815,171.738548 4.2763,256.578758 0.33946,2.49689 0.69584,4.99147 1.0691,7.48353"
       style="fill:none;stroke:#000000;stroke-width:1.565;stroke-linecap:butt;stroke-linejoin:miter;stroke-opacity:1;stroke-miterlimit:4;stroke-dasharray:none" />
    <path
       id="path4528"
       d="m 465.55366,-303.82189 c 7.11465,58.87023 10.68683,118.16837 10.69078,177.46696 0.005,82.006524 -6.80357,163.884265 -7.48355,245.88797 -0.50314,60.67699 2.35356,121.38168 8.55263,181.74327"
       style="fill:none;stroke:#000000;stroke-width:1.565;stroke-linecap:butt;stroke-linejoin:miter;stroke-opacity:1;stroke-miterlimit:4;stroke-dasharray:none" />
    <path
       id="path4532"
       d="m 145.54496,-302.75281 c 9.01576,74.43558 12.23591,149.57239 9.6217,224.506395 -3.17564,91.02693 -14.93551,181.590225 -18.17433,272.614925 -1.22943,34.55228 -1.22943,69.14829 0,103.70057"
       style="fill:none;stroke:#000000;stroke-width:1.565;stroke-linecap:butt;stroke-linejoin:miter;stroke-opacity:1;stroke-miterlimit:4;stroke-dasharray:none" />
    <path
       id="path4536"
       d="m 626.46604,-301.68374 c 7.68197,69.89027 10.18558,140.34915 7.48352,210.608389 -2.70178,70.251971 -10.59783,140.304547 -10.69078,210.608391 -0.0801,60.58645 5.6565,121.17924 17.10526,180.6742"
       style="fill:none;stroke:#000000;stroke-width:1.565;stroke-linecap:butt;stroke-linejoin:miter;stroke-opacity:1;stroke-miterlimit:4;stroke-dasharray:none" />
  </g>
  <g
     id="layer2">
    <g
       id="text4543"
       style="font-style:normal;font-weight:normal;font-size:70.55555725px;line-height:1.25;font-family:sans-serif;letter-spacing:0px;word-spacing:0px;fill:#000000;fill-opacity:1;stroke:none;stroke-width:0.26458332"
       aria-label="8">
      <path
         id="path38570"
         style="font-size:70.55555725px;stroke-width:0.26458332"
         d="m 414.82953,447.2573 q 0,6.64903 -5.2021,11.05875 -5.16764,4.40973 -13.02246,4.40973 -8.33713,0 -13.29807,-4.30637 -4.92648,-4.30637 -4.92648,-11.02431 0,-4.27192 2.48046,-7.71701 2.48047,-3.47955 6.99355,-5.51216 v -0.2067 q -4.13412,-2.20486 -6.13227,-4.82314 -1.96371,-2.61827 -1.96371,-6.54568 0,-5.78776 4.75424,-9.64627 4.75423,-3.8585 12.09228,-3.8585 7.68256,0 12.26454,3.68625 4.58198,3.68625 4.58198,9.37066 0,3.47955 -2.17041,6.85574 -2.17041,3.34174 -6.37343,5.23655 v 0.2067 q 4.82313,2.06706 7.37251,5.09874 2.54937,3.03169 2.54937,7.71702 z m -8.16488,-25.04585 q 0,-3.68625 -2.85943,-5.85666 -2.82498,-2.20486 -7.2347,-2.20486 -4.34082,0 -7.13135,2.06706 -2.75607,2.06705 -2.75607,5.58105 0,2.48047 1.37803,4.30637 1.41249,1.79145 4.23747,3.20394 1.27469,0.62012 3.6518,1.61919 2.41157,0.99908 4.68533,1.65365 3.41065,-2.27376 4.71978,-4.71978 1.30914,-2.44602 1.30914,-5.64996 z m 1.06798,25.70041 q 0,-3.16948 -1.41249,-5.06429 -1.37804,-1.92925 -5.44325,-3.8585 -1.6192,-0.75792 -3.54845,-1.41249 -1.92925,-0.65457 -5.13319,-1.8259 -3.10059,1.68809 -4.99539,4.58197 -1.86035,2.89388 -1.86035,6.54569 0,4.65088 3.20394,7.68256 3.20394,3.03168 8.13042,3.03168 5.02984,0 8.02708,-2.58382 3.03168,-2.58382 3.03168,-7.0969 z" />
    </g>
    <flowRoot
       style="fill:black;fill-opacity:1;stroke:none;font-family:sans-serif;font-style:normal;font-weight:normal;font-size:192px;line-height:1.25;letter-spacing:0px;word-spacing:0px"
       id="flowRoot4545"
       xml:space="preserve"><flowRegion
         id="flowRegion4547"><rect
           y="321.7587"
           x="282.84271"
           height="192.33304"
           width="121.62237"
           id="rect4549" /></flowRegion><flowPara
         id="flowPara4551" /></flowRoot>    <rect
       y="-0.92880034"
       x="0"
       height="601.67719"
       width="800.7395"
       id="rect4553"
       style="fill:#cccccc;fill-opacity:0;stroke-width:1.56500006;stroke-miterlimit:4;stroke-dasharray:none" />
  </g>
</svg>
