<?xml version="1.0" encoding="UTF-8" standalone="no"?>
<svg
   xmlns:dc="http://purl.org/dc/elements/1.1/"
   xmlns:cc="http://creativecommons.org/ns#"
   xmlns:rdf="http://www.w3.org/1999/02/22-rdf-syntax-ns#"
   xmlns:svg="http://www.w3.org/2000/svg"
   xmlns="http://www.w3.org/2000/svg"
   width="800mm"
   height="600mm"
   viewBox="0 0 800 600"
   version="1.1"
   id="svg8">
  <defs
     id="defs2" />
  <metadata
     id="metadata5">
    <rdf:RDF>
      <cc:Work
         rdf:about="">
        <dc:format>image/svg+xml</dc:format>
        <dc:type
           rdf:resource="http://purl.org/dc/dcmitype/StillImage" />
        <dc:title></dc:title>
      </cc:Work>
    </rdf:RDF>
  </metadata>
  <g
     id="layer1"
     transform="translate(0,303)"
     style="display:none">
    <path
       style="fill:none;stroke:#000000;stroke-width:1.96500003;stroke-linecap:butt;stroke-linejoin:miter;stroke-miterlimit:4;stroke-dasharray:none;stroke-opacity:1"
       d="M -1.0690781,-16.239877 C 111.22945,1.4586298 225.35236,7.5595334 338.89775,1.9344309 c 90.64081,-4.490397 180.83773,-16.4221439 271.54584,-19.2433839 63.50275,-1.975088 127.14436,0.527665 190.2959,7.4835281"
       id="path3715" />
    <path
       style="fill:none;stroke:#000000;stroke-width:1.56500006;stroke-linecap:butt;stroke-linejoin:miter;stroke-miterlimit:4;stroke-dasharray:none;stroke-opacity:1"
       d="m 312.57886,-302.75281 c -7.93679,60.93487 -11.51251,122.43734 -10.69078,183.88143 0.72001,53.837439 4.80949,107.591196 5.34538,161.430782 0.85218,85.616458 -7.25815,171.738548 4.2763,256.578758 0.33946,2.49689 0.69584,4.99147 1.0691,7.48353"
       id="path4524" />
    <path
       style="fill:none;stroke:#000000;stroke-width:1.56500006;stroke-linecap:butt;stroke-linejoin:miter;stroke-miterlimit:4;stroke-dasharray:none;stroke-opacity:1"
       d="m 465.55366,-303.82189 c 7.11465,58.87023 10.68683,118.16837 10.69078,177.46696 0.005,82.006524 -6.80357,163.884265 -7.48355,245.88797 -0.50314,60.67699 2.35356,121.38168 8.55263,181.74327"
       id="path4528" />
    <path
       style="fill:none;stroke:#000000;stroke-width:1.56500006;stroke-linecap:butt;stroke-linejoin:miter;stroke-miterlimit:4;stroke-dasharray:none;stroke-opacity:1"
       d="m 145.54496,-302.75281 c 9.01576,74.43558 12.23591,149.57239 9.6217,224.506395 -3.17564,91.02693 -14.93551,181.590225 -18.17433,272.614925 -1.22943,34.55228 -1.22943,69.14829 0,103.70057"
       id="path4532" />
    <path
       style="fill:none;stroke:#000000;stroke-width:1.56500006;stroke-linecap:butt;stroke-linejoin:miter;stroke-miterlimit:4;stroke-dasharray:none;stroke-opacity:1"
       d="m 626.46604,-301.68374 c 7.68197,69.89027 10.18558,140.34915 7.48352,210.608389 -2.70178,70.251971 -10.59783,140.304547 -10.69078,210.608391 -0.0801,60.58645 5.6565,121.17924 17.10526,180.6742"
       id="path4536" />
  </g>
  <g
     id="layer2"
     style="display:none">
    <flowRoot
       xml:space="preserve"
       id="flowRoot4545"
       style="font-style:normal;font-weight:normal;font-size:192px;line-height:1.25;font-family:sans-serif;letter-spacing:0px;word-spacing:0px;fill:#000000;fill-opacity:1;stroke:none"><flowRegion
         id="flowRegion4547"><rect
           id="rect4549"
           width="121.62237"
           height="192.33304"
           x="282.84271"
           y="321.7587" /></flowRegion><flowPara
         id="flowPara4551" /></flowRoot>    <rect
       style="fill:#cccccc;fill-opacity:0;stroke-width:1.56500006;stroke-miterlimit:4;stroke-dasharray:none"
       id="rect4553"
       width="800.7395"
       height="601.67719"
       x="0"
       y="-0.92880034" />
    <path
       style="fill:none;stroke:#000000;stroke-width:0.26458332px;stroke-linecap:butt;stroke-linejoin:miter;stroke-opacity:1"
       d="m 53.881535,34.992217 c -0.458099,0.117853 0.274222,4.415816 0,5.238483 -0.176387,0.529166 -0.638961,0.949751 -0.748353,1.496711 -0.146764,0.733821 0.08264,1.501285 0,2.245063 -0.167565,1.508075 -0.476922,2.997248 -0.748355,4.490127 -1.459042,8.024733 -0.06264,-1.058224 -1.496711,8.980258 -0.249449,1.74616 -0.622681,3.479075 -0.748353,5.238482 -0.124409,1.741723 0,3.49232 0,5.238483 0,0.997805 0.123762,2.003317 0,2.993416 -0.127571,1.020575 -0.579268,1.978899 -0.748355,2.99342 -0.08202,0.492117 0,0.997807 0,1.49671 0,1.496709 0,2.993419 0,4.490128 0,4.739579 0,9.479158 0,14.21874 0,1.995611 0,3.991223 0,5.986832 0,0.49891 0,0.99781 0,1.49671 0,0.49891 0.121002,1.0127 0,1.49671 -0.135284,0.54114 -0.571966,0.96755 -0.748355,1.49671 -0.164987,0.49496 0,3.75497 0,4.49013 0,3.24287 0,6.48574 0,9.72861 0,10.22751 0,20.45503 0,30.68254"
       id="path41" />
    <path
       style="fill:none;stroke:#000000;stroke-width:0.26458332px;stroke-linecap:butt;stroke-linejoin:miter;stroke-opacity:1"
       d="m 18.708867,88.125399 c 1.343097,0.946603 3.070225,-0.473302 4.490128,0 0.334674,0.111559 0.41368,0.636797 0.748354,0.748356 0.473302,0.157766 1.012703,-0.121002 1.49671,0 0.541136,0.135284 0.94975,0.638961 1.49671,0.748353 0.733822,0.146764 1.496708,0 2.245064,0 2.245063,0 4.490127,0 6.735191,0 1.247259,0 2.499637,-0.112922 3.741774,0 1.511123,0.137377 2.978015,0.622345 4.490127,0.748355 1.491539,0.124296 2.996735,-0.09956 4.490128,0 2.253876,0.15026 4.481316,0.598096 6.735193,0.748355 1.493393,0.09956 2.993419,0 4.490127,0 4.739579,0 9.479159,0 14.21874,0 1.995612,0 3.991224,0 5.986836,0 1.995614,0 3.995113,0.124482 5.986838,0 2.007227,-0.125452 3.980804,-0.605067 5.986838,-0.748355 1.492906,-0.106635 3.000846,0.148929 4.490127,0 1.023411,-0.102341 1.978898,-0.579268 2.993419,-0.748355 0.492119,-0.08202 0.997809,0 1.496709,0 1.49671,0 2.99342,0 4.49013,0 4.49013,0 8.98025,0 13.47038,0"
       id="path43" />
    <path
       style="fill:none;stroke:#000000;stroke-width:0.26458332px;stroke-linecap:butt;stroke-linejoin:miter;stroke-opacity:1"
       d="m 227.49982,52.204376 c 0,18.958316 0,37.916635 0,56.874954 0,6.23629 0,12.47258 0,18.70887 0,3.99122 -0.14772,7.98518 0,11.97367 0.10198,2.7534 0.62324,5.47946 0.74835,8.2319 0.1246,2.74114 0,5.48794 0,8.2319 0,4.24068 0,8.48136 0,12.72203 0,7.48355 0,14.9671 0,22.45064 0,2.99342 0,5.98684 0,8.98026 0,0.9978 -0.14111,2.00564 0,2.99342 0.11156,0.78091 0.59366,1.47155 0.74836,2.24506 0.0978,0.48922 0,0.99781 0,1.49671 0,0.99781 0,1.99561 0,2.99342"
       id="path45" />
    <path
       style="fill:none;stroke:#000000;stroke-width:0.26458332px;stroke-linecap:butt;stroke-linejoin:miter;stroke-opacity:1"
       d="m 159.39954,136.76845 c 3.24288,0 6.48574,0 9.72861,0 1.24726,0 2.49964,0.11292 3.74178,0 1.51112,-0.13737 2.97801,-0.62234 4.49013,-0.74835 1.49153,-0.1243 2.99633,0.0934 4.49012,0 12.36225,-0.77264 2.85319,-0.94444 17.21216,-1.49671 3.24048,-0.12464 6.48574,0 9.72861,0 3.49233,0 6.98672,-0.12036 10.47697,0 3.74785,0.12923 7.47747,0.61912 11.22532,0.74835 3.49024,0.12036 6.99352,-0.24882 10.47696,0 3.51882,0.25135 6.97643,1.05915 10.47697,1.49671 2.4876,0.31095 4.98903,0.49891 7.48355,0.74836 2.49451,0.24945 4.98147,0.59197 7.48355,0.74835 6.98463,0.43654 2.3282,-0.58205 10.47695,0 8.71572,0.62255 1.25838,0.40135 6.7352,1.49671 0.48922,0.0978 1.05048,-0.22311 1.4967,0 0.22312,0.11156 -0.17637,0.57197 0,0.74836 0.0241,0.0241 2.06356,0 2.24507,0"
       id="path47" />
    <path
       style="fill:none;stroke:#000000;stroke-width:0.26458332px;stroke-linecap:butt;stroke-linejoin:miter;stroke-opacity:1"
       d="m 109.25978,201.12696 c 0,4.2175 0.21167,5.40851 -0.74835,9.72861 -1.01456,4.56553 -4.25547,14.65393 -5.23849,18.70886 -1.01417,4.18349 -5.475827,26.25495 -5.986832,29.93419 -0.947476,6.82181 -0.748356,13.37437 -0.748356,20.20557 0,4.98903 0,9.97807 0,14.96711 0,11.59192 0.165283,-4.30655 -0.748355,11.22531 -0.117187,1.99216 0,3.99122 0,5.98684 0,4.98903 0,9.97807 0,14.96708 0,7.733 0,15.46601 0,23.19901 0,0.9978 0,1.99559 0,2.99342 0,0.24945 0,0.49889 0,0.74834 0,0.24945 0.249452,0.74835 0,0.74835 -0.249452,0 0,-0.4989 0,-0.74835"
       id="path49" />
    <path
       style="fill:none;stroke:#000000;stroke-width:0.26458332px;stroke-linecap:butt;stroke-linejoin:miter;stroke-opacity:1"
       d="m 42.656217,284.94267 c 2.494516,0 4.989031,0 7.483546,0 0.748353,0 1.504231,0.10584 2.245064,0 4.880015,-0.69715 1.17779,-0.9915 6.735191,-1.49669 1.490565,-0.13552 2.993419,0 4.49013,0 2.245064,-0.49893 4.451114,-1.22801 6.735191,-1.49672 1.981943,-0.23318 3.997103,0.15306 5.986838,0 1.268211,-0.0976 2.494515,-0.4989 3.741772,-0.74835 1.746162,-0.24945 3.479077,-0.6227 5.238482,-0.74835 1.741723,-0.12443 3.492323,0 5.238483,0 8.173209,0 5.020876,-0.27847 12.722026,0.74835 1.74842,0.23312 3.53416,0.29387 5.23849,0.74835 12.43509,3.31602 1.19165,0.59584 8.98025,4.49013 1.41111,0.70554 3.05387,0.84387 4.49013,1.4967 1.32417,0.6019 2.47888,1.52342 3.74177,2.24507 0.4843,0.27675 1.05048,0.41367 1.49671,0.74835 0.56445,0.42333 0.90966,1.10535 1.49671,1.49672 0.20756,0.13837 0.4989,0 0.74836,0 1.74616,0 3.49232,0 5.23848,0"
       id="path51" />
    <path
       style="fill:none;stroke:#000000;stroke-width:0.26458332px;stroke-linecap:butt;stroke-linejoin:miter;stroke-opacity:1"
       d="m 318.7991,264.73711 c -0.24948,1.49669 -0.62235,2.97801 -0.74837,4.49011 -0.12428,1.49156 0.10665,2.99722 0,4.49014 -0.14328,2.00604 -0.53782,3.98674 -0.74835,5.98683 -0.28842,2.74016 -0.50967,5.48698 -0.74835,8.2319 -1.92045,22.08519 0.2263,-4.68262 -0.74837,18.70887 -0.1147,2.75289 -0.61074,5.48005 -0.74835,8.2319 -0.1121,2.24227 0,4.49014 0,6.73518 0,7.23411 0,14.46821 0,21.70229 0,5.73739 0,11.47477 0,17.21218 0,1.99559 0,3.99121 0,5.98683 0,0.24945 0,0.4989 0,0.74835 0,0.24945 0.24945,0.74835 0,0.74835 -0.24945,0 0,-0.4989 0,-0.74835"
       id="path53" />
    <path
       style="fill:none;stroke:#000000;stroke-width:0.26458332px;stroke-linecap:butt;stroke-linejoin:miter;stroke-opacity:1"
       d="m 273.14945,316.37359 c 2.23303,0.4831 3.9505,-1.20582 5.98684,-1.49673 0.98779,-0.1411 1.99562,0 2.99341,0 2.24507,0 4.49014,0 6.73521,0 1.49669,0 2.99342,0 4.49011,0 1.24727,0 2.49965,-0.11292 3.74179,0 2.59062,0.23551 8.34387,1.53403 10.47697,2.24507 8.16758,2.72254 3.01998,2.02272 11.97367,6.73518 2.37749,1.25132 5.01409,1.93509 7.48355,2.99342 2.77043,1.18734 5.51056,2.44591 8.2319,3.74179 2.59416,1.23531 11.1778,5.7849 14.21874,6.73518 1.68359,0.52612 3.49509,0.48014 5.23848,0.74835 1.49971,0.23074 2.97723,0.63198 4.49012,0.74837 1.74101,0.13391 3.50988,-0.24696 5.23848,0 1.79779,0.25681 3.46895,1.08834 5.23849,1.4967 1.22086,0.28175 8.81102,1.4133 9.72862,1.49672 0.99369,0.0903 2.00329,-0.12377 2.99342,0 1.02055,0.12755 1.97889,0.57925 2.99341,0.74835 0.88487,0.14747 2.06648,0 2.99342,0"
       id="path55" />
    <path
       style="fill:none;stroke:#000000;stroke-width:0.26458332px;stroke-linecap:butt;stroke-linejoin:miter;stroke-opacity:1"
       d="m 454.99964,133.02668 c -0.15994,4.98057 0.26186,9.99189 0,14.96709 -0.3103,5.89571 -1.23203,10.58814 -2.24507,16.46381 -0.73165,4.24358 -1.76951,8.44216 -2.24507,12.72203 -3.72197,33.49788 1.7612,-2.79101 -1.49669,25.44405 -3.85451,21.19969 0.34009,-4.6595 -1.49672,16.46381 -0.26289,3.0233 -1.20899,5.95921 -1.4967,8.98025 -0.21286,2.23495 0,4.49013 0,6.7352 0,7.48354 0,14.96709 0,22.45063"
       id="path57" />
    <path
       style="fill:none;stroke:#000000;stroke-width:0.26458332px;stroke-linecap:butt;stroke-linejoin:miter;stroke-opacity:1"
       d="m 389.14443,189.90163 c 2.24506,0 4.49013,0 6.7352,0 0.74835,0 1.50421,-0.10583 2.24504,0 2.4546,0.35066 5.19203,1.6201 7.48356,2.24507 1.22714,0.33467 2.5464,0.31367 3.74176,0.74835 5.17292,1.88106 4.09337,2.57291 8.98028,5.23849 1.1793,0.64326 2.51883,0.94083 3.74176,1.4967 1.52339,0.69245 2.97077,1.54383 4.49014,2.24507 1.7249,0.79611 3.51356,1.44895 5.23849,2.24506 1.51934,0.70124 2.96674,1.55262 4.49011,2.24507 1.22293,0.55587 2.51423,0.95112 3.74179,1.49671 1.01941,0.45308 1.97397,1.04362 2.99341,1.4967 1.22754,0.54559 2.43041,1.2053 3.74177,1.49672 0.97404,0.21645 2.00332,-0.12377 2.99341,0 1.4323,0.17903 6.76011,1.88334 7.48356,2.24506 1.6089,0.80446 2.97251,2.02768 4.49011,2.99342 1.22714,0.78091 2.57815,1.37234 3.74179,2.24506 2.29986,1.7249 1.52215,2.98706 4.49011,2.24507 0.34227,-0.0856 0.4137,-0.6368 0.74838,-0.74836 0.47328,-0.15777 1.017,0.13706 1.49669,0 3.99796,-1.14228 4.15653,-2.11162 8.2319,-3.74177 2.19726,-0.8789 4.51938,-1.41413 6.73521,-2.24507 1.77879,-0.66705 3.44937,-1.6061 5.23848,-2.24506 1.71022,-0.6108 3.54349,-0.84479 5.23846,-1.49671 5.30434,-2.04012 3.76034,-2.88916 9.72863,-3.74177 1.7286,-0.24695 3.49948,0.15809 5.23848,0 1.02428,-0.0931 1.97284,-0.62079 2.99342,-0.74836 0.9901,-0.12376 1.99562,0 2.99342,0 2.74396,0 5.48793,0 8.2319,0"
       id="path59" />
    <path
       style="fill:none;stroke:#000000;stroke-width:0.26458332px;stroke-linecap:butt;stroke-linejoin:miter;stroke-opacity:1"
       d="m 580.72324,64.926405 c 0,6.485739 0,12.971481 0,19.45722 0,2.494515 -0.13113,4.992481 0,7.483546 0.11871,2.255758 0.54382,4.48559 0.74834,6.735194 0.88366,9.720265 1.31956,19.468155 2.24507,29.185835 0.47535,4.99132 0.943,9.98384 1.4967,14.96709 0.22209,1.99884 0.59412,3.98162 0.74834,5.98684 0.0957,1.24358 -0.12409,2.5007 0,3.74177 0.26141,2.614 0.99674,4.23523 1.49673,6.73519 0.19568,0.97843 -0.19569,2.01499 0,2.99342 0.10937,0.54696 0.57197,0.96754 0.74834,1.49671 0.15777,0.4733 0,0.99781 0,1.49671 0,0.74835 0,1.49671 0,2.24506 0,1.74617 0,3.49233 0,5.23849"
       id="path61" />
    <path
       style="fill:none;stroke:#000000;stroke-width:0.26458332px;stroke-linecap:butt;stroke-linejoin:miter;stroke-opacity:1"
       d="m 538.81535,116.56288 c 0.99783,0 2.0092,0.16404 2.99342,0 0.5502,-0.0917 0.96755,-0.57197 1.49672,-0.74836 0.70996,-0.23665 1.51905,0.18151 2.24507,0 0.54113,-0.13528 0.95557,-0.61307 1.49669,-0.74835 0.48401,-0.121 0.99783,0 1.49673,0 1.49669,0 3.00085,0.14892 4.49011,0 1.50984,-0.15099 2.97902,-0.61098 4.49014,-0.74836 1.24213,-0.11292 2.49451,0 3.74176,0 1.24727,0 2.49452,0 3.74179,0 1.49669,0 2.99955,0.13551 4.49011,0 11.46072,-1.04188 -4.88606,-0.74835 8.2319,-0.74835 3.24289,0 6.48576,0 9.72863,0 1.49672,0 2.99341,0 4.49013,0 1.24725,0 2.50069,0.12411 3.74177,0 1.26563,-0.12657 2.47758,-0.60789 3.74176,-0.74836 0.99171,-0.11019 1.99562,0 2.99342,0 0.99782,0 1.99562,0 2.99341,0 2.99345,0 5.98686,0 8.98028,0"
       id="path63" />
    <path
       style="fill:none;stroke:#000000;stroke-width:0.26458332px;stroke-linecap:butt;stroke-linejoin:miter;stroke-opacity:1"
       d="m 371.93227,52.952729 c 0.61722,8.540607 -1.19287,16.93673 -1.49672,25.44406 -0.13353,3.739388 0,7.483547 0,11.225319 0,5.238482 0,10.476962 0,15.715452 0,3.24287 0,6.48574 0,9.72861 0,1.24725 0.15471,2.50414 0,3.74177 -0.0978,0.78274 -0.61867,1.46696 -0.74834,2.24506 -0.12304,0.73818 0,1.49671 0,2.24507 0,2.24506 0,4.49013 0,6.73519 0,5.98684 0,11.97367 0,17.96051"
       id="path65" />
    <path
       style="fill:none;stroke:#000000;stroke-width:0.26458332px;stroke-linecap:butt;stroke-linejoin:miter;stroke-opacity:1"
       d="m 336.01125,95.608946 c 0.9978,0.249452 1.98488,0.546645 2.99342,0.748355 0.48921,0.09784 0.99779,0 1.49669,0 0.99783,0 1.99562,0 2.99345,0 2.99341,0 5.98683,0 8.98024,0 8.23191,0 16.46381,0 24.69571,0 2.99342,0 5.98683,0 8.98025,0 1.24725,0 2.49883,-0.103579 3.74176,0 1.75782,0.146481 3.49512,0.480142 5.23849,0.748353 1.49971,0.230725 3.02625,0.349112 4.49014,0.748355 1.296,0.353457 2.4793,1.037633 3.74176,1.496711 1.4827,0.539158 3.00744,0.95755 4.49014,1.49671 1.51074,0.54936 4.20756,1.80024 5.98683,2.24506 0.24202,0.0605 0.51171,-0.0789 0.74835,0 5.42065,1.80688 -1.17986,-0.21575 2.24507,1.49671 0.22312,0.11156 0.4989,0 0.74834,0 1.22537,0 1.49673,0.27137 1.49673,1.49671"
       id="path67" />
    <path
       style="fill:none;stroke:#000000;stroke-width:0.26458332px;stroke-linecap:butt;stroke-linejoin:miter;stroke-opacity:1"
       d="m 205.04918,334.33408 c 0,1.24725 0.11292,2.49965 0,3.74177 -0.13738,1.51114 -0.54782,2.98609 -0.74835,4.49014 -0.59709,4.47812 -1.06839,8.97297 -1.49672,13.47038 -1.44597,15.18269 -1.82385,30.44532 -2.99341,45.64962 -0.21132,2.74717 -0.4742,5.49032 -0.74836,8.2319 -0.22477,2.24769 -0.61571,4.48022 -0.74835,6.73521 -0.11719,1.99216 0,3.99121 0,5.98683 0,1.74618 0,3.49232 0,5.23849 0,1.74617 0.13392,3.49747 0,5.23849 -0.11638,1.51288 -0.62235,2.97801 -0.74836,4.49011 -0.20716,2.48592 0.22584,4.99927 0,7.48355 -0.15969,1.75665 -0.58866,3.48184 -0.74835,5.23849 -0.0903,0.99372 0,1.99562 0,2.99341 0,2.99342 0,5.98684 0,8.98025 0,2.74397 0,5.48794 0,8.2319 0,0.24948 0.17639,0.57198 0,0.74838 -0.17639,0.17637 -0.4989,0 -0.74836,0 -0.24945,0 -0.9978,0 -0.74835,0 0.4989,0 0.99781,0 1.49671,0"
       id="path69" />
    <path
       style="fill:none;stroke:#000000;stroke-width:0.26458332px;stroke-linecap:butt;stroke-linejoin:miter;stroke-opacity:1"
       d="m 146.67752,394.20247 c 8.2319,0 16.4638,0 24.6957,0 2.24506,0 4.50127,-0.22339 6.73519,0 9.8882,0.9888 6.00944,1.64975 14.96709,2.99341 2.7248,0.40873 5.50189,0.37608 8.23191,0.74835 2.76337,0.37682 5.47097,1.10231 8.2319,1.49672 7.86022,1.12289 6.67777,0.33655 14.21874,1.4967 1.01655,0.15639 1.98487,0.54665 2.99341,0.74834 1.16066,0.23215 5.96259,0.8449 7.48355,1.49672 0.82669,0.35431 1.48237,1.02003 2.24506,1.49673 1.23345,0.77089 2.41761,1.64316 3.74178,2.24504 1.43626,0.65286 2.96805,1.08162 4.49013,1.49672 1.22714,0.33467 2.51463,0.41368 3.74177,0.74835 3.04416,0.83023 5.90005,2.30894 8.98026,2.99341 0.73053,0.16235 1.57571,-0.33467 2.24506,0 0.4989,0.24945 0.35394,1.10231 0.74835,1.49673 0.17639,0.17637 0.49891,0 0.74836,0 0.24945,0 0.4989,0 0.74836,0"
       id="path71" />
    <path
       style="fill:none;stroke:#000000;stroke-width:0.26458332px;stroke-linecap:butt;stroke-linejoin:miter;stroke-opacity:1"
       d="m 78.577241,433.86525 c 0,6.98466 0,13.96929 0,20.95394 0,16.96271 0,33.92541 0,50.88811 0,1.24727 0,2.49452 0,3.74179 0,0.9978 -0.110189,2.00171 0,2.99342 0.140464,1.26418 0.568473,2.48258 0.748355,3.74176 0.07055,0.4939 -0.121002,1.01269 0,1.49672 0.135284,0.54113 0.613069,0.95557 0.748353,1.4967 0.121002,0.484 0,0.99779 0,1.49672 0.249452,0.4989 0.541197,0.9788 0.748355,1.49669 0.292965,0.73242 0.557035,1.47979 0.748356,2.24507 0.0605,0.24202 -0.111559,0.52523 0,0.74835 0.157765,0.31554 0.590587,0.43283 0.748352,0.74835 0.111559,0.22312 -0.111556,0.52525 0,0.74837 0.157769,0.31552 0.59059,0.43281 0.748356,0.74835 0.111559,0.22312 0.249452,0.74835 0,0.74835 -0.249452,0 0,-0.4989 0,-0.74835"
       id="path73" />
    <path
       style="fill:none;stroke:#000000;stroke-width:0.26458332px;stroke-linecap:butt;stroke-linejoin:miter;stroke-opacity:1"
       d="m 49.391408,478.01818 c -0.249452,0.99779 -0.748355,1.9649 -0.748355,2.99341 0,0.24945 0.498903,0 0.748355,0 0.249452,0 0.498904,0 0.748355,0 0.997805,0 1.995612,0 2.993419,0 2.993417,0 5.986836,0 8.980255,0 4.240678,0 8.481354,0 12.722029,0 1.247259,0 2.494516,0 3.741775,0 1.247256,0 2.502143,-0.13774 3.741771,0 1.022226,0.11359 1.970009,0.64601 2.993419,0.74835 1.489282,0.14894 3.000849,-0.14891 4.49013,0 1.023409,0.10234 1.975239,0.60291 2.993417,0.74838 0.740833,0.10583 1.504233,-0.10584 2.245066,0 5.932426,0.84748 0.330578,0.28188 5.238486,2.24506 0.46322,0.18529 1.03349,-0.18528 1.49671,0 0.83508,0.33401 1.47382,1.03397 2.24506,1.4967 0.4783,0.28699 1.01841,0.46138 1.49671,0.74835 4.60673,2.76405 0.21696,0.17359 3.74177,2.99341 0.70232,0.56187 1.52554,0.95708 2.24507,1.49673 0.28222,0.21166 0.41368,0.63679 0.74835,0.74834 0.4733,0.15777 1.05048,-0.22309 1.49671,0 0.22312,0.11158 0,0.4989 0,0.74838"
       id="path75" />
    <path
       style="fill:none;stroke:#000000;stroke-width:0.26458332px;stroke-linecap:butt;stroke-linejoin:miter;stroke-opacity:1"
       d="m 301.58692,472.77969 c -1.74559,12.21923 0.52155,-0.70284 -2.24504,8.98025 -0.63182,2.21136 -0.96996,4.49652 -1.49672,6.73521 -0.47114,2.00234 -0.94615,4.00484 -1.49672,5.98683 -1.10387,3.97394 -3.27142,9.98572 -3.74177,14.21874 -0.24791,2.23133 0.11801,4.49323 0,6.7352 -0.13176,2.50349 -0.60928,4.98044 -0.74834,7.48353 -0.11071,1.99255 0,3.99124 0,5.98686 0,1.24725 0.12409,2.50068 0,3.74176 -0.12658,1.26564 -0.60791,2.47759 -0.74835,3.74177 -0.19286,1.73548 0.24693,3.50988 0,5.23848 -0.14547,1.0182 -0.60291,1.97525 -0.74838,2.99342 -0.21166,1.48167 0.29353,3.02249 0,4.49014 -0.10937,0.54694 -0.63896,0.94975 -0.74834,1.49669 -0.14677,0.73382 0,1.49672 0,2.24507 0,1.99562 0,3.99124 0,5.98683"
       id="path77" />
    <path
       style="fill:none;stroke:#000000;stroke-width:0.26458332px;stroke-linecap:butt;stroke-linejoin:miter;stroke-opacity:1"
       d="m 257.43401,514.68755 c 1.52214,-1.38044 3.58192,0.55218 5.23848,0 0.33467,-0.11155 0.45482,-0.55266 0.74835,-0.74835 0.81429,-0.54284 2.93044,-1.36149 3.74178,-1.49669 0.73816,-0.12303 1.4967,0 2.24507,0 0.9978,0 1.99559,0 2.99342,0 1.99559,0 3.99121,0 5.98683,0 6.73518,0 13.47039,0 20.20557,0 2.24507,0 4.49013,0 6.7352,0 1.9956,0 3.99429,0.11067 5.98684,0 4.31942,0.21124 8.46296,-1.19251 12.72201,-1.49672 1.74172,-0.12441 3.49837,0.14501 5.23848,0 4.4453,-0.37045 2.6855,-1.19833 6.73521,-0.74835 6.50521,0.72279 1.35303,0.18558 5.98683,2.24507 1.44169,0.64074 3.03382,0.8899 4.49014,1.49669 1.54464,0.6436 2.96675,1.55263 4.49011,2.24507 1.22293,0.55586 2.51886,0.94083 3.74179,1.49672 1.52337,0.69244 2.96098,1.56544 4.49012,2.24504 7.81711,3.4743 -2.69783,-2.048 3.74179,2.24507 0.99779,0.66522 0.74834,-0.91466 0.74834,0.74835"
       id="path79" />
    <path
       style="fill:none;stroke:#000000;stroke-width:0.26458332px;stroke-linecap:butt;stroke-linejoin:miter;stroke-opacity:1"
       d="m 382.40925,378.48701 c 0,7.81942 0.31551,-1.14485 -0.74838,5.23848 -0.12303,0.73817 0.0745,1.50043 0,2.24507 -0.1755,1.75514 -0.45836,3.49859 -0.74835,5.23849 -0.45849,2.751 -1.15077,5.46446 -1.49669,8.2319 -0.40344,3.22734 -0.489,6.4865 -0.74837,9.7286 -0.23953,2.99423 -0.4989,5.98683 -0.74835,8.98025 -0.24945,2.99344 -0.39047,5.99786 -0.74835,8.98027 -2.4406,15.86384 -0.7403,3.66932 -2.24507,17.21215 -0.22209,1.99885 -0.61457,3.98016 -0.74835,5.98684 -0.18253,2.73788 0,5.48793 0,8.2319 0,0.4989 0.121,1.01269 0,1.49672 -0.13528,0.54113 -0.61309,0.95557 -0.74837,1.49669 -0.12099,0.48401 0.0978,1.00751 0,1.49673 -0.1547,0.77351 -0.59365,1.47153 -0.74835,2.24506 -0.0978,0.48922 0.0979,1.00749 0,1.4967 -0.1547,0.77351 -0.59364,1.47156 -0.74835,2.24507 -0.0978,0.48921 0,0.9978 0,1.49669 0,1.74617 0,3.49234 0,5.23849 0,0.99608 0,0.50064 0,1.49672 0,0.24945 0.24945,0.74835 0,0.74835 -0.24944,0 0,-0.4989 0,-0.74835"
       id="path81" />
    <path
       style="fill:none;stroke:#000000;stroke-width:0.26458332px;stroke-linecap:butt;stroke-linejoin:miter;stroke-opacity:1"
       d="m 332.26946,424.13666 c 1.49672,-0.24945 2.99344,-0.49893 4.49014,-0.74838 0.74835,0 1.5013,0.0827 2.24507,0 1.50807,-0.16756 2.97802,-0.62232 4.49014,-0.74835 1.49153,-0.1243 2.99632,0.0934 4.49011,0 2.50208,-0.15636 4.97972,-0.62317 7.48355,-0.74834 2.4914,-0.12457 4.99213,0.12456 7.48356,0 2.5038,-0.1252 4.98043,-0.60931 7.48352,-0.74835 1.99255,-0.1107 3.99124,0 5.98684,0 2.24507,0 4.49013,0 6.7352,0 3.74177,0 7.48356,0 11.22532,0 1.49672,0 3.00085,-0.14893 4.49014,0 4.00362,0.40034 4.67109,2.55482 8.2319,3.74176 0.47329,0.15777 1.01269,-0.12099 1.4967,0 1.08227,0.27057 1.89949,1.27791 2.99341,1.4967 0.73382,0.14676 1.49672,0 2.24507,0 1.24725,0 2.49452,0 3.74176,0 0.74838,0 1.53512,-0.23664 2.24507,0 0.33468,0.11157 0.4989,0.49892 0.74835,0.74837"
       id="path83" />
    <path
       style="fill:none;stroke:#000000;stroke-width:0.26458332px;stroke-linecap:butt;stroke-linejoin:miter;stroke-opacity:1"
       d="m 499.15257,290.18116 c 0,6.48573 0,12.97149 0,19.45722 0,16.4638 0,32.92761 0,49.39141 0,6.33748 0.39441,1.41576 -0.74835,5.98683 -0.12102,0.484 0.22309,1.05048 0,1.49672 -0.15777,0.31552 -0.59061,0.43281 -0.74838,0.74835 -0.11154,0.22312 0,0.4989 0,0.74835 0,0.4989 0,0.99782 0,1.49672 0,1.49669 0,2.99342 0,4.49011 0,1.24727 0,2.49452 0,3.74179 0,0.4989 0,0.9978 0,1.4967 0,0.24945 0.24948,0.74837 0,0.74837 -0.24945,0 0,-0.49892 0,-0.74837"
       id="path85" />
    <path
       style="fill:none;stroke:#000000;stroke-width:0.26458332px;stroke-linecap:butt;stroke-linejoin:miter;stroke-opacity:1"
       d="m 461.73482,329.84395 c 3.1664,0.0568 5.88941,-1.96406 8.98028,-2.24505 1.73897,-0.15808 3.4957,0.10891 5.23848,0 2.25446,-0.14091 4.47942,-0.62963 6.73518,-0.74837 2.49108,-0.1311 4.98904,0 7.48356,0 2.24506,0 4.49011,0 6.73518,0 2.11666,0 7.61195,0 9.72862,0 0.9978,0 2.0017,-0.11017 2.99342,0 1.26418,0.14047 2.47758,0.60791 3.74176,0.74837 0.99171,0.11018 2.00332,-0.12377 2.99342,0 2.50793,0.31348 4.3747,1.35988 6.7352,2.24505 0.73861,0.27699 1.53951,0.39557 2.24505,0.74837 0.80446,0.40222 1.47383,1.03397 2.24506,1.49669 0.95661,0.57397 2.06521,0.87792 2.99342,1.49673 0.29353,0.19568 0.4137,0.6368 0.74837,0.74834 0.47329,0.15777 0.9978,0 1.4967,0"
       id="path87" />
    <path
       style="fill:none;stroke:#000000;stroke-width:0.26458332px;stroke-linecap:butt;stroke-linejoin:miter;stroke-opacity:1"
       d="m 609.1607,231.06114 c 0,7.733 0,15.466 0,23.199 0,1.99561 -0.11718,3.99466 0,5.98683 0.13264,2.25499 0.58741,4.48207 0.74835,6.7352 0.0889,1.24408 0,2.49452 0,3.74177 0,3.49231 0,6.98465 0,10.47697 0,1.74614 -0.17375,3.50099 0,5.23848 0.151,1.50982 0.58079,2.98204 0.74835,4.49012 0.0827,0.74379 0,1.49672 0,2.24507 0,0.99779 0,1.99561 0,2.99341 0,2.49452 0,4.98904 0,7.48356"
       id="path89" />
    <path
       style="fill:none;stroke:#000000;stroke-width:0.26458332px;stroke-linecap:butt;stroke-linejoin:miter;stroke-opacity:1"
       d="m 571.74296,258.75026 c 3.49234,0 6.98466,0 10.47697,0 2.24507,0 4.494,-0.13183 6.73521,0 2.00766,0.1181 3.98012,0.61458 5.98683,0.74836 3.73348,0.2489 7.49083,-0.23341 11.22532,0 8.07664,0.50479 3.69811,0.86944 11.22532,1.49671 1.24293,0.10358 2.50213,-0.13774 3.74176,0 1.02222,0.11358 1.99562,0.4989 2.99342,0.74835 0.99782,0.24945 2.07348,0.28839 2.99341,0.74836 0.63109,0.31553 0.86564,1.18117 1.49672,1.49671 0.44622,0.22311 0.9978,0 1.4967,0 0.49892,0.24945 1.03262,0.43894 1.49672,0.74836 2.48198,2.48197 -0.70556,-0.35279 1.49672,0.74834 3.42493,1.71247 -3.17558,-0.31017 2.24504,1.49672 0.23667,0.0789 0.52526,-0.11157 0.74838,0 0.31551,0.15775 0.4328,0.59058 0.74835,0.74835 0.22312,0.11155 0.49889,0 0.74834,0 0.24945,0 0.4989,0 0.74835,0"
       id="path91" />
    <path
       style="fill:none;stroke:#000000;stroke-width:0.26458332px;stroke-linecap:butt;stroke-linejoin:miter;stroke-opacity:1"
       d="m 705.69846,32.747153 c 0,25.194607 0,50.389216 0,75.583817"
       id="path93" />
    <path
       style="fill:none;stroke:#000000;stroke-width:0.26458332px;stroke-linecap:butt;stroke-linejoin:miter;stroke-opacity:1"
       d="m 669.02909,69.416532 c 0.2155,-0.526875 4.35943,0.293008 5.23845,0 0.3347,-0.111559 0.41371,-0.636796 0.74838,-0.748355 0.47329,-0.157766 1.0046,0.08202 1.49669,0 1.01452,-0.169085 1.97525,-0.602901 2.99342,-0.748353 0.74083,-0.105833 1.50691,0.123029 2.24507,0 0.77811,-0.129685 1.46232,-0.650512 2.24507,-0.748355 1.23761,-0.154705 2.49452,0 3.74176,0 1.24727,0 2.49452,0 3.74179,0 4.98901,0 9.97805,0 14.96708,0 4.98904,0 9.97808,0 14.96711,0 1.74615,0 3.49232,0 5.23846,0 0.49893,0 0.99782,0 1.49672,0 0.24945,0 0.51171,-0.07888 0.74835,0 0.52917,0.176389 0.95557,0.613071 1.49672,0.748355 4.24066,0 0.24945,-0.498904 1.4967,0.748353 0.17639,0.17639 0.49892,0 0.74837,0 0.24945,0 0.4989,0 0.74835,0 1.99562,0 3.99121,0 5.98683,0 0.24945,0 0.57198,-0.176387 0.74835,0 0.99782,0.997807 -1.24725,0.748355 0.74837,0.748355 0.18148,0 2.22099,-0.02408 2.24505,0 0.17639,0.17639 0,0.498904 0,0.748356"
       id="path95" />
    <path
       style="fill:none;stroke:#000000;stroke-width:0.26458332px;stroke-linecap:butt;stroke-linejoin:miter;stroke-opacity:1"
       d="m 720.66554,159.96745 c -0.4989,3.99122 -0.9978,7.98245 -1.4967,11.97367 -0.24945,1.99561 -0.39886,4.0063 -0.74837,5.98684 -1.36525,7.73651 -1.85312,5.63177 -2.24504,13.47038 -0.13703,2.74055 0.37073,5.5131 0,8.2319 -0.38431,2.81811 -1.8015,5.42253 -2.24507,8.23191 -0.31126,1.97119 0.13274,3.99564 0,5.98683 -0.11734,1.75999 -0.60188,3.48069 -0.74835,5.23849 -0.10358,1.24295 0,2.49451 0,3.74177 0,1.24726 0,2.49451 0,3.74177 0,3.49232 0,6.98465 0,10.47697 0,1.99561 0.13274,3.99564 0,5.98683 -0.99531,14.92949 -0.74837,-4.40777 -0.74837,10.47697 0,4.98903 0,9.97806 0,14.96709 0,5.98741 0.2446,1.52577 -0.74835,7.48355 -0.041,0.24607 0.0789,0.51171 0,0.74835 -0.1764,0.52917 -0.57198,0.96756 -0.74835,1.49672 -0.0789,0.23665 0,0.4989 0,0.74835 0,1.43494 0.33809,1.15861 -0.74837,2.24507"
       id="path97" />
    <path
       style="fill:none;stroke:#000000;stroke-width:0.26458332px;stroke-linecap:butt;stroke-linejoin:miter;stroke-opacity:1"
       d="m 658.55212,210.85557 c 2.99341,0 5.98683,0 8.98024,0 0.4989,0 1.0046,-0.082 1.49673,0 3.34629,0.55771 3.07451,1.16392 6.73518,1.4967 1.49055,0.13551 2.99857,-0.12429 4.49013,0 1.5121,0.12601 2.97723,0.63198 4.49012,0.74836 3.73075,0.28698 7.48871,-0.19666 11.22531,0 2.75149,0.14481 5.48008,0.61076 8.23191,0.74835 3.98626,0.19931 7.98245,0 11.97369,0 1.74614,0 3.49834,-0.14501 5.23848,0 1.26754,0.10563 2.47759,0.6079 3.74177,0.74836 2.47925,0.27547 4.99636,-0.19132 7.48355,0 6.64332,0.51102 3.70549,0.6024 9.7286,2.24506 1.22714,0.33468 2.57945,0.23177 3.74176,0.74836 1.13977,0.50656 1.91051,1.62625 2.99344,2.24506 1.36981,0.78274 3.13728,0.68501 4.49012,1.49671 0.60502,0.36301 0.86563,1.18117 1.49672,1.49671 0.44622,0.22312 0.99779,0 1.49669,0 0.74838,0.24945 1.56866,0.3425 2.24507,0.74835 1.21002,0.72602 1.86455,2.14676 2.99342,2.99342 0.44624,0.33468 1.18732,0.28425 1.49672,0.74836 1.16409,1.74616 -1.08096,1.49671 0.74835,1.49671"
       id="path99" />
    <path
       style="fill:none;stroke:#000000;stroke-width:0.26458332px;stroke-linecap:butt;stroke-linejoin:miter;stroke-opacity:1"
       d="m 573.98803,336.57915 c 0,12.56901 0.27548,2.44473 -0.74835,14.21874 -0.30332,3.48805 -0.23527,7.01355 -0.74835,10.47697 -0.48773,3.29216 -1.71926,6.44231 -2.24507,9.72859 -0.47458,2.96609 -0.51797,5.98533 -0.74837,8.98028 -0.26852,3.49089 -0.62338,6.97796 -0.74835,10.47694 -0.12464,3.49012 0,6.98466 0,10.47698 0,3.74179 0,7.48355 0,11.22531 0,23.69791 0,47.39579 0,71.0937"
       id="path101" />
    <path
       style="fill:none;stroke:#000000;stroke-width:0.26458332px;stroke-linecap:butt;stroke-linejoin:miter;stroke-opacity:1"
       d="m 502.14598,418.89817 c 1.27328,-1.81504 3.03811,0.36301 4.49014,0 0.76528,-0.19132 1.46696,-0.61867 2.24504,-0.74837 0.73819,-0.12301 1.50691,0.12303 2.24507,0 1.14168,-0.19027 5.56189,-2.12916 5.98683,-2.24505 1.46392,-0.39925 2.97665,-0.64026 4.49014,-0.74837 1.99054,-0.14216 3.99124,0 5.98683,0 1.99562,0 3.99124,0 5.98684,0 1.99562,0 3.99124,0 5.98686,0 2.24504,0 4.50022,-0.21283 6.73518,0 9.54301,0.90887 8.75228,1.68764 17.96052,4.49014 2.72095,0.82812 5.49714,1.4637 8.2319,2.24507 2.50413,0.71546 4.95695,1.6134 7.48353,2.24507 2.46798,0.61698 5.07019,0.69223 7.48356,1.49669 2.11666,0.70557 3.89773,2.21001 5.98683,2.99342 1.92606,0.72228 4.04966,0.80486 5.98683,1.49672 1.57589,0.56282 2.88735,1.76421 4.49014,2.24507 0.95573,0.2867 2.0017,-0.1102 2.99342,0 2.23303,-0.48313 3.95049,1.20578 5.98683,1.49669 0.98779,0.1411 2.00565,-0.1411 2.99341,0 0.78092,0.11155 1.46699,0.61868 2.24507,0.74835 0.73819,0.12303 1.50689,-0.12303 2.24507,0 0.77809,0.1297 1.47154,0.59367 2.24507,0.74837 0.28985,0.058 2.87033,-0.0615 2.99342,0 3.34618,1.6731 0.19963,1.4967 2.24507,1.4967"
       id="path103" />
    <path
       style="fill:none;stroke:#000000;stroke-width:0.26458332px;stroke-linecap:butt;stroke-linejoin:miter;stroke-opacity:1"
       d="m 469.96672,469.03793 c -3.27096,9.81292 0.0865,-1.15186 -2.24504,9.7286 -3.11341,14.52919 0.10062,-2.36464 -2.99344,8.98027 -0.39923,1.46389 -0.51761,2.9904 -0.74835,4.49011 -1.92588,12.51823 0.36999,-1.4715 -1.4967,9.72863 -0.49892,2.99341 -0.90156,6.00448 -1.49672,8.98025 -0.20172,1.00853 -0.63476,1.97119 -0.74834,2.99341 -0.13775,1.23963 0,2.49452 0,3.74179 0,2.74397 0,5.48794 0,8.23188 0,8.2319 0,16.4638 0,24.6957 0,2.74397 0,5.48794 0,8.2319 0,1.24728 0.11292,2.49966 0,3.74179 -0.13738,1.51112 -0.59738,2.9803 -0.74835,4.49012 -0.0993,0.99287 0.12374,2.00332 0,2.99344 -0.12758,1.02055 -0.62079,1.97284 -0.74838,2.99342 -0.12374,0.99009 0,1.99559 0,2.99341 0,1.24725 0,2.49452 0,3.74177"
       id="path105" />
    <path
       style="fill:none;stroke:#000000;stroke-width:0.26458332px;stroke-linecap:butt;stroke-linejoin:miter;stroke-opacity:1"
       d="m 408.60165,525.91287 c 1.24727,0 2.50414,0.15473 3.74176,0 2.49158,-0.31144 1.7394,-0.82923 3.74179,-1.4967 2.04541,-0.6818 5.54916,-1.22036 7.48355,-1.49672 1.99091,-0.2844 3.98013,-0.61457 5.98684,-0.74835 1.74228,-0.11615 3.49231,0 5.23848,0 1.4967,0 2.99342,0 4.49011,0 7.48356,0 14.96711,0 22.45064,0 3.74179,0 7.48355,0 11.22532,0 0.99782,0 1.99562,0 2.99344,0 1.24725,0 2.50412,-0.1547 3.74177,0 0.78274,0.0978 1.47499,0.57724 2.24506,0.74835 1.48122,0.32917 3.0089,0.41921 4.49012,0.74837 1.54011,0.34224 2.93393,1.23733 4.49013,1.4967 0.73816,0.12303 1.49672,0 2.24507,0 0.24945,0 0.52523,-0.11155 0.74835,0 3.42493,1.71246 -3.17558,-0.31017 2.24507,1.49672 0.89426,0.29808 0.60243,-0.2981 1.49669,0 0.52917,0.17637 0.9556,0.61307 1.49673,0.74835 0.484,0.12099 0.99779,0 1.49669,0 0.24948,0 0.52525,-0.11155 0.74837,0 0.31552,0.15777 0.43281,0.59058 0.74835,0.74835 0.44625,0.22312 1.05048,-0.2231 1.49672,0 0.31552,0.15777 0.4989,0.49889 0.74835,0.74837"
       id="path107" />
    <path
       style="fill:none;stroke:#000000;stroke-width:0.26458332px;stroke-linecap:butt;stroke-linejoin:miter;stroke-opacity:1"
       d="m 693.72476,329.0956 c 0.24948,1.74617 0.49893,3.49231 0.74838,5.23848 0.3057,2.14001 1.35853,9.29106 1.49669,11.22532 0.10666,1.49291 0,2.99342 0,4.49014 0,5.73738 0,11.47477 0,17.21215 0,2.49452 -0.1311,4.99248 0,7.48356 0.18249,3.46699 1.02288,8.41996 1.49673,11.97366 0.003,0.0265 1.49611,11.97073 1.49669,11.97367 0.35616,1.78077 0.99782,3.49234 1.49672,5.23848 0.24945,1.99562 0.44254,3.9991 0.74835,5.98683 1.10334,7.17164 0.22193,0.88771 1.49672,5.98686 0.15505,0.62016 0,2.95373 0,3.74177"
       id="path109" />
    <path
       style="fill:none;stroke:#000000;stroke-width:0.26458332px;stroke-linecap:butt;stroke-linejoin:miter;stroke-opacity:1"
       d="m 651.06856,373.99687 c 3.21405,-0.28739 6.51791,0.32107 9.72862,0 10.77646,-1.07765 -4.27153,-0.32144 8.23191,-2.24504 1.72585,-0.26554 3.49231,0 5.23845,0 4.24069,0 8.48138,0 12.72204,0 3.74177,0 7.48356,0 11.22532,0 1.74617,0 3.49676,-0.12441 5.23849,0 1.7594,0.12565 3.49006,0.51522 5.23848,0.74835 1.99351,0.2658 4.01474,0.35393 5.98684,0.74834 1.78077,0.35616 3.47667,1.05627 5.23848,1.49673 2.46796,0.61698 5.01558,0.87971 7.48356,1.49669 0.76528,0.19132 1.51265,0.4554 2.24506,0.74837 0.5179,0.20715 0.94975,0.63895 1.4967,0.74835 3.11814,0.62362 1.24727,-0.41576 3.74176,0 1.01455,0.16907 1.97525,0.60291 2.99342,0.74835 0.74083,0.10583 1.51125,-0.14677 2.24507,0 0.54697,0.1094 0.95557,0.61307 1.49672,0.74835 0.55547,0.13888 2.76371,-0.22969 2.99342,0 0.17639,0.17639 0,0.49892 0,0.74837"
       id="path111" />
    <path
       style="fill:none;stroke:#000000;stroke-width:0.26458332px;stroke-linecap:butt;stroke-linejoin:miter;stroke-opacity:1"
       d="m 618.8893,484.75338 c -1.78284,3.38442 -0.2532,7.01093 -0.74835,10.47695 -0.32525,2.27671 -1.19274,4.45556 -1.49669,6.73521 -0.19783,1.48357 0.0995,2.99672 0,4.49011 -0.15028,2.25388 -0.61571,4.48021 -0.74838,6.7352 -0.11718,1.99216 0,3.99122 0,5.98684 0,3.49231 0,6.98465 0,10.47697 0,2.74396 0,5.48793 0,8.2319 0,0.74835 -0.0928,1.50249 0,2.24507 0.89514,7.16095 0.74838,0.88987 0.74838,5.98683 0,1.99562 0,3.99121 0,5.98683 0,0.4989 -0.12102,1.0127 0,1.49673 0.13528,0.54112 0.63894,0.94974 0.74835,1.49669 0.14525,0.72628 0,5.09884 0,5.98683 0,3.75381 0,6.17083 0,8.2319"
       id="path113" />
    <path
       style="fill:none;stroke:#000000;stroke-width:0.26458332px;stroke-linecap:butt;stroke-linejoin:miter;stroke-opacity:1"
       d="m 578.47817,534.14477 c 1.10312,-0.82735 2.92274,-2.47094 4.49011,-2.99342 2.3826,-0.79417 5.05177,-1.05455 7.48355,-1.49669 3.47459,-0.63175 5.25169,-1.20989 8.98025,-1.49672 1.4923,-0.11478 2.99342,0 4.49014,0 1.49669,0 2.99342,0 4.49014,0 6.23244,0 6.84188,-0.19857 13.47036,0.74837 2.76092,0.39441 5.4738,1.08299 8.2319,1.49669 2.2339,0.3351 4.52019,0.30536 6.73521,0.74835 7.4364,1.4873 9.26732,2.83967 16.4638,5.23849 1.72283,0.57428 3.54349,0.84479 5.23849,1.49672 1.56183,0.60071 2.88731,1.76421 4.49011,2.24507 6.09134,1.8274 0.22135,-1.76022 5.23848,0.74835 0.80447,0.40222 1.52554,0.95705 2.24507,1.49669 0.28223,0.21167 0.41368,0.6368 0.74835,0.74837 0.9466,0.31552 2.04682,-0.31554 2.99341,0 0.3347,0.11155 0.49893,0.4989 0.74838,0.74835"
       id="path115" />
    <path
       style="fill:none;stroke:#000000;stroke-width:0.26458332px;stroke-linecap:butt;stroke-linejoin:miter;stroke-opacity:1"
       d="m 742.36783,446.58729 c 0,5.98742 0.24461,1.52577 -0.74835,7.48353 -0.28998,1.7399 -0.42331,3.50483 -0.74835,5.23849 -0.42383,2.26044 -1.02293,4.48471 -1.49672,6.7352 -0.52406,2.48933 -0.9978,4.98904 -1.49672,7.48356 -0.74835,3.74176 -1.74072,7.44291 -2.24504,11.22531 -0.49565,3.71719 -0.48117,7.48478 -0.74838,11.22532 -0.23172,3.24419 -0.61293,6.47896 -0.74834,9.7286 -0.2077,4.98472 0,9.97807 0,14.96711 0,13.47036 0,26.94075 0,40.41113"
       id="path117" />
    <path
       style="fill:none;stroke:#000000;stroke-width:0.26458332px;stroke-linecap:butt;stroke-linejoin:miter;stroke-opacity:1"
       d="m 686.24124,499.72047 c 1.65658,-0.63961 3.55949,0.47971 5.23848,0 1.07265,-0.30647 1.90439,-1.25471 2.99342,-1.49672 1.21756,-0.27057 2.50214,0.13774 3.74176,0 1.02222,-0.11356 1.97001,-0.64601 2.99342,-0.74835 1.48929,-0.14894 2.99342,0 4.49014,0 2.24507,0 4.49011,0 6.73518,0 1.74617,0 3.49234,0 5.23848,0 1.99562,0 3.99566,-0.13274 5.98684,0 1.75998,0.11734 3.49234,0.4989 5.23848,0.74835 1.74617,0.24947 3.51375,0.37877 5.23849,0.74837 3.55145,0.76102 6.9379,2.1767 10.47697,2.99342 1.47849,0.34118 2.99725,0.47691 4.49013,0.74834 1.25143,0.22754 2.4945,0.4989 3.74177,0.74835 1.24724,0.24945 2.55079,0.30176 3.74176,0.74837 0.84214,0.31581 1.47384,1.03397 2.24507,1.4967 3.26946,1.96167 -0.54171,-0.64503 3.74177,1.49672 0.80446,0.40222 1.40292,1.18089 2.24506,1.4967 1.19097,0.44661 2.5078,0.43987 3.74179,0.74837 0.76529,0.19132 1.4967,0.4989 2.24505,0.74835 0.74837,0.24945 1.51265,0.45537 2.24507,0.74835 0.51789,0.20716 0.94974,0.63896 1.49672,0.74834 0.73382,0.14677 1.50688,-0.12303 2.24507,0 0.77808,0.1297 1.47976,0.55706 2.24504,0.74838 0.24201,0.0605 0.52525,-0.11158 0.74837,0 0.31552,0.15774 0.4989,0.49889 0.74835,0.74834"
       id="path119" />
    <path
       style="fill:none;stroke:#000000;stroke-width:0.26458332px;stroke-linecap:butt;stroke-linejoin:miter;stroke-opacity:1"
       d="m 197.56563,229.56443 c -0.1626,2.23769 0.20326,4.49935 0,6.73519 -0.13737,1.51113 -0.59737,2.98031 -0.74835,4.49013 -0.0993,0.99285 0.11019,2.00172 0,2.99342 -0.14047,1.26418 -0.64273,2.47421 -0.74836,3.74177 -0.31073,3.72885 0.23341,7.49084 0,11.22532 -0.12545,2.00723 -0.61457,3.98015 -0.74835,5.98685 -0.11615,1.74228 0,3.49231 0,5.23848 0,4.73956 0,9.47915 0,14.21874"
       id="path121" />
    <path
       style="fill:none;stroke:#000000;stroke-width:0.26458332px;stroke-linecap:butt;stroke-linejoin:miter;stroke-opacity:1"
       d="m 175.11499,252.01507 c 10.72642,0 21.45284,0 32.17925,0 1.24726,0 2.49452,0 3.74178,0 1.24726,0 2.55852,-0.39442 3.74177,0 1.18325,0.39442 1.90312,1.63934 2.99342,2.24507 1.17429,0.65238 2.51421,0.95112 3.74177,1.49671 1.01943,0.45308 1.94887,1.105 2.99342,1.4967 0.96303,0.36114 2.01768,0.42311 2.99342,0.74836 2.55895,0.85298 0.55689,0.62071 2.99342,2.24506 0.20755,0.13838 0.4989,0 0.74835,0"
       id="path123" />
    <path
       style="fill:none;stroke:#000000;stroke-width:0.26458332px;stroke-linecap:butt;stroke-linejoin:miter;stroke-opacity:1"
       d="m 172.12157,494.48198 c 0,5.73739 0,11.47477 0,17.21215 0,1.49672 -0.1355,2.99958 0,4.49014 0.11516,1.26675 0.6332,2.47505 0.74836,3.74176 0.1355,1.49059 -0.14893,3.00086 0,4.49014 0.10234,1.02341 0.52524,1.9894 0.74835,2.99342 0.27593,1.24166 0.59059,2.47965 0.74836,3.74176 0,5.70894 -0.33468,-0.59034 0.74835,3.74179 0.24201,0.96801 -0.19568,2.01499 0,2.99342 0.1547,0.77351 0.59365,1.47153 0.74836,2.24507 0.16208,0.81042 0,4.43849 0,5.23848 0,3.99122 0,7.98243 0,11.97367 0,8.09863 0,23.53762 0,35.92102"
       id="path125" />
    <path
       style="fill:none;stroke:#000000;stroke-width:0.26458332px;stroke-linecap:butt;stroke-linejoin:miter;stroke-opacity:1"
       d="m 130.96207,538.63491 c 15.71545,0 31.43089,0 47.14634,0 2.99342,0 5.98684,0 8.98026,0 1.49671,0 3.00084,-0.14894 4.49013,0 1.0234,0.10234 1.97284,0.62079 2.99341,0.74834 1.84726,0.23093 3.57657,-0.49807 5.23849,0.74838 0.44623,0.33467 0.35393,1.10228 0.74835,1.49669 0.17639,0.1764 0.57197,-0.17637 0.74836,0 0.17638,0.1764 -0.17639,0.57198 0,0.74835 0.0726,0.0727 3.45659,0 3.74177,0"
       id="path127" />
  </g>
  <g
     id="layer3"
     style="display:none">
    <path
       style="fill:none;stroke:#000000;stroke-width:0.26458332px;stroke-linecap:butt;stroke-linejoin:miter;stroke-opacity:1"
       d="m 38.166087,52.204376 c 1.995615,0 3.991226,0 5.986838,0 1.247259,0 2.531756,0.302503 3.741775,0 1.843042,-0.460761 3.49232,-1.496711 5.238482,-2.245064 1.995612,-0.498903 3.969753,-1.093292 5.986836,-1.496711 4.695193,-0.939038 7.044838,-0.71847 11.973676,-1.496708 2.512785,-0.396756 4.952254,-1.243581 7.483547,-1.496711 2.482135,-0.248213 4.98903,0 7.483546,0 2.743967,0 5.487934,0 8.231902,0 2.245063,0 4.490127,0 6.735191,0 1.74616,0 3.53874,-0.399939 5.23848,0 2.61526,0.615355 4.93475,2.143819 7.48355,2.993419 1.95147,0.650492 3.99122,0.997808 5.98684,1.496711 1.99561,0.498901 3.96975,1.09329 5.98683,1.496708 1.72964,0.345927 3.51977,0.351727 5.23849,0.748356 1.53726,0.354753 2.93392,1.23734 4.49012,1.496708 1.47635,0.246057 2.99342,0 4.49013,0 0.74836,0 1.49671,0 2.24507,0 0.74835,0 1.50689,-0.123028 2.24506,0 0.81133,0.135221 2.92749,0.953855 3.74177,1.496711 0.29353,0.195686 0.41369,0.636797 0.74836,0.748353 0.70995,0.236651 1.49671,0 2.24506,0"
       id="path130" />
    <path
       style="fill:none;stroke:#000000;stroke-width:0.26458332px;stroke-linecap:butt;stroke-linejoin:miter;stroke-opacity:1"
       d="m 32.927604,149.49048 c 2.440379,0.079 4.392473,-1.91039 6.735194,-2.24506 1.975554,-0.28222 4.006636,0.24752 5.986835,0 1.020575,-0.12757 1.972848,-0.62078 2.99342,-0.74836 0.990102,-0.12376 2.001715,0.11019 2.993419,0 1.264179,-0.14046 2.477595,-0.60789 3.741774,-0.74835 0.991703,-0.11019 1.99971,0.0903 2.993419,0 1.756643,-0.1597 3.480686,-0.60187 5.238483,-0.74836 1.242949,-0.10358 2.494515,0 3.741772,0 2.494515,0 4.989031,0 7.483546,0 3.741775,0 7.483546,0 11.225321,0 1.247259,0 2.518735,-0.2446 3.741774,0 1.31725,0.26345 2.438543,1.17091 3.741772,1.49671 4.198882,1.04972 0.307113,-1.34315 4.490128,0.74836 0.315534,0.15777 0.413681,0.63679 0.748355,0.74835 0.541546,0.18052 2.746734,-0.24668 2.993424,0 0.17638,0.17639 0.17638,0.57197 0,0.74836 -0.17639,0.17639 -0.49891,0 -0.74836,0"
       id="path132" />
    <path
       style="fill:none;stroke:#000000;stroke-width:0.26458332px;stroke-linecap:butt;stroke-linejoin:miter;stroke-opacity:1"
       d="m 127.96865,104.5892 c 1.49671,0 3.00257,0.16529 4.49013,0 3.81706,-0.42412 0.76922,-1.00476 4.49012,-2.24506 0.70996,-0.23665 1.50424,0.10583 2.24507,0 8.11338,-1.15906 -3.87069,-0.63224 8.2319,-1.49671 1.74172,-0.12441 3.49232,0 5.23848,0 2.24507,0 4.49013,0 6.73519,0 6.7352,0 13.47039,0 20.20558,0 4.73958,0 9.47916,0 14.21874,0 1.49671,0 3.02248,-0.29353 4.49013,0 2.32055,0.46411 4.43159,1.70304 6.73519,2.24506 1.95768,0.46063 4.01475,0.35394 5.98684,0.74836 1.78076,0.35615 3.48376,1.02878 5.23848,1.49671 1.98757,0.53002 4.00895,0.9316 5.98684,1.49671 18.70207,6.23402 -9.22314,-2.54849 8.98025,1.4967 0.878,0.19511 1.41838,1.14242 2.24507,1.49672 0.94535,0.40515 2.01768,0.4231 2.99341,0.74835 0.52917,0.17639 0.94976,0.63896 1.49672,0.74835 3.2473,0.64946 1.40973,-0.83532 2.99341,0.74836"
       id="path134" />
    <path
       style="fill:none;stroke:#000000;stroke-width:0.26458332px;stroke-linecap:butt;stroke-linejoin:miter;stroke-opacity:1"
       d="m 264.1692,45.469182 c 1.43857,-0.587057 3.02247,0.293529 4.49012,0 0.77353,-0.154702 1.46417,-0.636796 2.24506,-0.748352 0.9878,-0.141113 1.99562,0 2.99342,0 1.24727,0 2.49452,0 3.74179,0 4.49011,0 8.98025,0 13.47039,0 7.71464,0 13.25271,-0.428591 20.95391,1.496708 4.3628,1.090694 8.44333,3.105843 12.72204,4.490127 4.82259,1.560253 16.32829,4.536736 21.70229,6.735194 8.84092,4.420465 5.90137,3.209631 14.96708,6.735191 1.98639,0.772488 3.92748,1.695905 5.98684,2.245063 0.94051,0.250801 10.65868,1.421157 11.22532,1.496711 1.74841,0.233122 3.54898,0.241504 5.23848,0.748353 0.86148,0.258445 1.40999,1.162677 2.24507,1.496711 0.92644,0.370575 2.10095,-0.446233 2.99342,0 0.22312,0.111556 0,0.498903 0,0.748352"
       id="path136" />
    <path
       style="fill:none;stroke:#000000;stroke-width:0.26458332px;stroke-linecap:butt;stroke-linejoin:miter;stroke-opacity:1"
       d="m 237.97679,182.41809 c 1.24725,-0.49891 2.54025,-0.89595 3.74177,-1.49671 0.80445,-0.40223 1.42317,-1.13143 2.24506,-1.49671 1.44169,-0.64075 3.00745,-0.95755 4.49013,-1.49671 1.26246,-0.45908 2.51422,-0.95113 3.74177,-1.49671 1.01943,-0.45308 1.945,-1.11547 2.99342,-1.49671 1.7067,-0.62062 3.49232,-0.99781 5.23848,-1.49671 1.74616,-0.4989 3.49233,-0.9978 5.23848,-1.49671 1.74617,-0.4989 3.43839,-1.25669 5.23848,-1.49671 1.97811,-0.26375 3.9963,0.14218 5.98684,0 1.51349,-0.1081 2.97902,-0.61098 4.49014,-0.74835 1.24213,-0.11292 2.49451,0 3.74176,0 1.74617,0 3.49234,0 5.23848,0 1.99562,0 3.99124,0 5.98684,0 1.99562,0 4.01838,-0.32808 5.98686,0 2.56889,0.42815 4.96493,1.58227 7.48352,2.24506 4.44823,1.17059 8.99301,1.93992 13.47039,2.99342 18.91361,4.45026 -4.4917,-0.74867 10.47697,2.24507 1.00854,0.2017 1.97525,0.6029 2.99342,0.74835 0.74083,0.10583 1.49672,0 2.24507,0 0.99779,0 1.99562,0 2.99341,0"
       id="path138" />
    <path
       style="fill:none;stroke:#000000;stroke-width:0.26458332px;stroke-linecap:butt;stroke-linejoin:miter;stroke-opacity:1"
       d="m 102.52459,235.55127 c 2.19621,-0.43924 3.97332,-0.63377 5.98684,-1.49671 1.02538,-0.43945 1.91114,-1.22614 2.99342,-1.49671 0.96801,-0.242 2.02116,0.22437 2.99341,0 2.30591,-0.53213 4.43935,-1.6711 6.73519,-2.24506 1.71123,-0.42781 3.49233,-0.49891 5.23849,-0.74836 1.74616,-0.24945 3.48069,-0.60187 5.23848,-0.74835 1.24295,-0.10358 2.49452,0 3.74177,0 1.74616,0 3.49233,0 5.23849,0 2.24506,0 4.49012,0 6.73519,0 6.02074,0 9.18453,-0.30302 14.96709,0.74835 10.97375,1.99523 7.32558,1.74866 16.4638,4.49013 2.72424,0.81727 5.59115,1.18876 8.23191,2.24506 2.38457,0.95383 4.38226,2.71237 6.73519,3.74178 1.66377,0.7279 3.49904,0.97487 5.23848,1.49671 0.75557,0.22667 1.49671,0.4989 2.24507,0.74835 0.74835,0.24945 1.5395,0.39558 2.24506,0.74835 0.31553,0.15777 0.43282,0.59059 0.74836,0.74836 0.22311,0.11156 0.4989,0 0.74835,0 0.24945,0 0.57196,0.17639 0.74835,0 0.17639,-0.17639 0,-0.4989 0,-0.74836"
       id="path140" />
    <path
       style="fill:none;stroke:#000000;stroke-width:0.26458332px;stroke-linecap:butt;stroke-linejoin:miter;stroke-opacity:1"
       d="m 43.40457,315.62521 c 0.997807,-0.24945 1.995614,-0.4989 2.993419,-0.74835 0.748355,0 1.511242,0.14677 2.245064,0 0.0353,-0.007 2.889967,-1.45534 2.993419,-1.49672 0.557545,-1.39041 2.82285,-0.44204 3.741774,-0.74834 9.35509,-3.11836 -4.256021,0.14692 6.735191,-2.99342 2.211343,-0.6318 4.466653,-1.11861 6.735194,-1.4967 1.075266,-0.17923 13.534297,-1.46251 14.218737,-1.49672 2.491404,-0.12456 4.989031,0 7.483546,0 11.870726,0 7.020034,-0.29361 17.960516,0.74835 2.49566,0.2377 5.01473,0.31268 7.48354,0.74837 6.6954,1.18153 3.43009,1.32837 8.98026,2.99342 1.21832,0.3655 2.50779,0.43984 3.74177,0.74835 0.76528,0.19132 1.46697,0.61867 2.24507,0.74835 1.23028,0.20505 2.49451,0 3.74177,0 0.4989,0 1.0127,-0.121 1.49671,0 3.43965,0.85992 0.16979,0.74834 2.24506,0.74834"
       id="path142" />
    <path
       style="fill:none;stroke:#000000;stroke-width:0.26458332px;stroke-linecap:butt;stroke-linejoin:miter;stroke-opacity:1"
       d="m 196.06892,286.43939 c 1.24726,0 2.54251,0.34264 3.74178,0 0.67841,-0.19383 0.86564,-1.18117 1.49671,-1.49672 0.95921,-0.47961 6.02662,-1.26052 6.73519,-1.49669 1.05833,-0.3528 1.95219,-1.09625 2.99342,-1.49672 2.40895,-0.92652 15.29081,-4.97782 16.4638,-5.23849 3.44377,-0.76528 7.00816,-0.85434 10.47697,-1.49669 3.27245,-0.60603 6.48573,-1.49672 9.72861,-2.24507 3.74177,-0.99783 7.42334,-2.25756 11.22532,-2.99342 7.65503,-1.48164 15.53223,-1.57366 23.19898,-2.99342 3.03398,-0.56184 5.94035,-1.7164 8.98028,-2.24506 7.91813,-1.37708 8.51053,-0.36964 16.4638,-0.74836 3.49933,-0.16664 9.79755,-1.06462 13.47036,-1.49671 2.24343,-0.26393 4.48297,-0.57511 6.73521,-0.74836 0.99486,-0.0765 2.00332,0.12377 2.99342,0 1.02057,-0.12757 1.97524,-0.6029 2.99341,-0.74835 0.74084,-0.10583 1.49672,0 2.24507,0 0.9978,0 1.99562,0 2.99342,0"
       id="path144" />
    <path
       style="fill:none;stroke:#000000;stroke-width:0.26458332px;stroke-linecap:butt;stroke-linejoin:miter;stroke-opacity:1"
       d="m 401.86647,129.28491 c 7.48352,0 14.96708,0 22.45063,0 1.99562,0 3.99428,0.11069 5.98683,0 2.5031,-0.13906 4.99192,-0.47151 7.48356,-0.74836 1.99882,-0.22209 4.02915,-0.28772 5.98683,-0.74835 2.3036,-0.54203 4.39764,-1.87598 6.73518,-2.24507 2.46401,-0.38905 4.98904,0 7.48356,0 4.24069,0 8.48135,0 12.72204,0 2.74396,0 5.48793,0 8.2319,0 0.41124,0 5.24036,0.14929 5.98683,0 6.30089,-1.26018 0.023,-0.0116 2.99342,-1.49671 0.94136,-0.47067 1.49669,1.07479 1.49669,-0.74835"
       id="path146" />
    <path
       style="fill:none;stroke:#000000;stroke-width:0.26458332px;stroke-linecap:butt;stroke-linejoin:miter;stroke-opacity:1"
       d="m 459.48978,213.10063 c 0.72403,-0.6621 5.31773,0.35436 6.73518,0 0.54112,-0.13529 0.94975,-0.63896 1.49672,-0.74836 0.73382,-0.14676 1.49669,0 2.24504,0 0.99783,0 1.99562,0 2.99342,0 2.49452,0 4.98903,0 7.48355,0 4.98904,0 9.97808,0 14.96711,0 2.24504,0 4.494,-0.13183 6.73518,0 2.00769,0.1181 3.98016,0.61458 5.98683,0.74836 1.74231,0.11615 3.49232,0 5.23849,0 3.24287,0 6.48573,0 9.72862,0 0.9978,0 1.9956,0 2.99342,0 0.9978,0 2.02538,-0.242 2.99342,0 1.08227,0.27057 1.99562,0.99781 2.99341,1.49671 1.24725,0.4989 2.43041,1.2053 3.74177,1.49671 0.97406,0.21645 2.02541,-0.24201 2.99341,0 7.32555,1.83138 -0.57922,1.49671 5.23849,1.49671 1.31723,0 1.49672,0.61896 1.49672,-0.74836"
       id="path148" />
    <path
       style="fill:none;stroke:#000000;stroke-width:0.26458332px;stroke-linecap:butt;stroke-linejoin:miter;stroke-opacity:1"
       d="m 429.55559,271.47229 c 18.20994,0 36.41992,0 54.62989,0 4.24067,0 8.48135,0 12.72202,0 1.74617,0 3.49747,-0.13391 5.23848,0 1.51289,0.11639 2.99725,0.47693 4.49014,0.74837 1.25143,0.22752 2.49452,0.4989 3.74176,0.74835 1.24725,0.24945 2.5508,0.30173 3.74177,0.74835 0.84214,0.3158 1.39181,1.21229 2.24507,1.49672 0.70995,0.23664 1.5069,-0.12303 2.24507,0 0.77811,0.12967 1.47155,0.59364 2.24506,0.74834 0.84291,0.16857 2.09283,0 2.99342,0 0.24945,0 0.57198,0.1764 0.74835,0 0.1764,-0.17639 0,-0.49889 0,-0.74834"
       id="path150" />
    <path
       style="fill:none;stroke:#000000;stroke-width:0.26458332px;stroke-linecap:butt;stroke-linejoin:miter;stroke-opacity:1"
       d="m 309.81882,336.57915 c 10.60599,0 1.40986,0.48401 11.9737,-1.49672 1.97667,-0.37063 4.00304,-0.41772 5.98683,-0.74835 2.50931,-0.41822 4.95361,-1.23039 7.48355,-1.49669 2.23272,-0.23503 4.49012,0 6.73518,0 2.24507,0 4.49014,0 6.73518,0 1.99562,0 3.99124,0 5.98686,0 3.71875,0 5.33408,-0.24606 8.98025,0.74835 15.56708,4.24555 -11.25683,-1.67669 8.98025,2.99341 1.47849,0.34118 3.01808,0.38034 4.49014,0.74835 1.53056,0.38264 2.99342,0.9978 4.49011,1.49672 1.49672,0.4989 3.0253,0.91078 4.49014,1.4967 1.55369,0.62148 2.93645,1.62359 4.49014,2.24507 0.73239,0.29297 1.49669,0.49889 2.24504,0.74834 0.74837,0.24945 1.47979,0.55706 2.24507,0.74838 0.484,0.12099 0.99782,0 1.49672,0 0.74835,0 1.49669,0 2.24507,0"
       id="path152" />
    <path
       style="fill:none;stroke:#000000;stroke-width:0.26458332px;stroke-linecap:butt;stroke-linejoin:miter;stroke-opacity:1"
       d="m 154.90942,402.43437 c 7.60738,-1.52149 0.61745,0.0374 5.98683,-1.49672 1.97789,-0.5651 3.99123,-0.9978 5.98684,-1.4967 1.99561,-0.49892 3.94239,-1.26955 5.98684,-1.49672 2.47926,-0.27546 4.98903,0 7.48355,0 5.23848,0 10.47696,0 15.71544,0 3.24287,0 6.50884,-0.38637 9.72861,0 3.06357,0.36764 5.92063,1.846 8.98026,2.24507 2.72092,0.35491 5.48794,0 8.2319,0 2.24507,0 4.49013,0 6.73519,0 5.48794,0 10.97587,0 16.46381,0 0.18149,0 2.22099,0.0241 2.24506,0 0.17639,-0.1764 0,-0.4989 0,-0.74835"
       id="path154" />
    <path
       style="fill:none;stroke:#000000;stroke-width:0.26458332px;stroke-linecap:butt;stroke-linejoin:miter;stroke-opacity:1"
       d="m 61.365082,461.55437 c 3.24287,0 6.485741,0 9.728612,0 0.997805,0 2.003317,0.12378 2.993419,0 1.020572,-0.12755 1.989394,-0.52522 2.993417,-0.74834 1.241671,-0.27594 2.479638,-0.59061 3.741774,-0.74835 7.936714,-0.99211 -3.632909,1.28238 4.490127,-0.74837 0.242004,-0.0605 0.498904,0 0.748356,0 0.498904,0 0.997807,0 1.496708,0 1.496711,0 2.993419,0 4.49013,0 3.991224,0 7.982455,0 11.973675,0 2.24506,0 4.49013,0 6.73519,0 0.39133,0 2.79665,-0.0984 2.99342,0 0.31553,0.15777 0.4989,0.49892 0.74835,0.74837"
       id="path156" />
    <path
       style="fill:none;stroke:#000000;stroke-width:0.26458332px;stroke-linecap:butt;stroke-linejoin:miter;stroke-opacity:1"
       d="m 38.166087,534.89314 c 0.991238,-1.57768 2.558521,0.39442 3.741775,0 4.239942,-2.11997 -1.115582,0.2789 2.993419,-0.74837 0.541136,-0.13528 0.955572,-0.61307 1.496708,-0.74835 0.484007,-0.12099 1.007496,0.0978 1.496711,0 0.773514,-0.1547 1.466961,-0.61867 2.245063,-0.74835 1.476344,-0.24606 3.029059,0.32467 4.490128,0 1.540102,-0.34223 2.937907,-1.21449 4.490127,-1.49672 1.22714,-0.22309 2.498825,0.10359 3.741774,0 3.515593,-0.29294 6.959579,-1.22613 10.476966,-1.49669 1.4923,-0.11481 3.000846,0.14893 4.490127,0 1.023411,-0.10234 1.971194,-0.63479 2.993419,-0.74835 1.239629,-0.13774 2.500707,0.12409 3.741775,0 1.265645,-0.12658 2.476127,-0.6218 3.741772,-0.74837 1.241067,-0.12409 2.494515,0 3.741774,0 1.995612,0 3.991224,0 5.986836,0 0.748355,0 1.49671,0 2.245069,0 0.4989,0 1.00749,0.0978 1.49671,0 0.77351,-0.15471 1.47978,-0.55703 2.24506,-0.74835 0.63765,-0.15941 1.58527,0 2.24506,0"
       id="path158" />
    <path
       style="fill:none;stroke:#000000;stroke-width:0.26458332px;stroke-linecap:butt;stroke-linejoin:miter;stroke-opacity:1"
       d="m 111.50485,495.9787 c 1.99561,0 3.99122,0 5.98683,0 0.49891,0 0.99781,0 1.49671,0 0.24945,0 0.52524,0.11155 0.74836,0 0.31553,-0.15777 0.43282,-0.5906 0.74835,-0.74837 0.22312,-0.11155 0.50375,0.0489 0.74835,0 2.01709,-0.40341 4.01657,-0.90562 5.98684,-1.4967 3.2536,-0.97607 6.37966,-2.32362 9.72861,-2.99341 1.97209,-0.39442 3.99123,-0.4989 5.98684,-0.74838 3.90912,-0.48863 9.6765,-1.25957 13.47039,-1.49669 1.49379,-0.0934 2.99341,0 4.49012,0 3.49233,0 6.98465,0 10.47697,0 4.73958,0 9.47916,0 14.21874,0 1.74616,0 3.50764,-0.23077 5.23848,0 2.03899,0.27186 3.96975,1.09328 5.98684,1.49669 1.72963,0.34595 3.51375,0.37878 5.23848,0.74838 1.77572,0.38049 3.44357,1.22055 5.23848,1.49669 1.47931,0.2276 2.99783,-0.11477 4.49013,0 13.69391,1.05339 -1.68044,0.31218 8.98026,1.49672 1.74608,0.194 4.14762,0 5.98683,0"
       id="path160" />
    <path
       style="fill:none;stroke:#000000;stroke-width:0.26458332px;stroke-linecap:butt;stroke-linejoin:miter;stroke-opacity:1"
       d="m 246.20869,449.58071 c 1.24725,0 2.50705,0.17637 3.74177,0 0.55218,-0.0789 0.96754,-0.57198 1.49671,-0.74835 0.97573,-0.32525 2.00828,-0.45283 2.99342,-0.74837 1.51113,-0.45334 2.95286,-1.14194 4.49013,-1.4967 3.11455,-0.71874 8.17986,-0.88762 11.22532,-1.49672 1.78078,-0.35615 3.43836,-1.25669 5.23848,-1.49669 1.97811,-0.26377 3.9951,0.12448 5.98684,0 2.00723,-0.12547 3.97917,-0.63027 5.98683,-0.74838 2.2412,-0.13181 4.49014,0 6.7352,0 2.49452,0 4.98901,0 7.48353,0 9.03113,0 4.43929,0 13.47039,0 1.99562,0 4.00344,-0.22037 5.98683,0 2.52836,0.28094 4.97425,1.0785 7.48356,1.49672 1.98379,0.33063 4.02034,0.32698 5.98683,0.74835 1.54265,0.33057 2.96804,1.08159 4.49014,1.49672 9.25118,2.52304 -1.26855,-1.18512 6.73518,2.24507 1.45013,0.62145 3.12033,0.71395 4.49014,1.4967 1.08291,0.6188 1.847,1.75373 2.99341,2.24507 0.68784,0.29479 1.50424,-0.10584 2.24507,0 1.01817,0.14544 2.01769,0.42309 2.99342,0.74834 1.68015,0.56007 2.03393,1.39116 3.74176,2.24507 0.79087,0.39542 2.24507,-0.87752 2.24507,1.49672"
       id="path162" />
    <path
       style="fill:none;stroke:#000000;stroke-width:0.26458332px;stroke-linecap:butt;stroke-linejoin:miter;stroke-opacity:1"
       d="m 387.64773,406.17613 c 1.99559,0 3.99121,0 5.98683,0 0.74835,0 1.50689,-0.12303 2.24507,0 0.77809,0.1297 1.46696,0.61868 2.24504,0.74835 0.73819,0.12303 1.49673,0 2.24507,0 1.24728,0 2.49883,-0.10356 3.74177,0 1.75781,0.1465 3.4798,0.61309 5.23848,0.74837 1.49231,0.11478 2.99342,0 4.49014,0 1.49672,0 2.99342,0 4.49014,0 1.74614,0 3.49676,-0.1244 5.23848,0 1.7594,0.12565 3.49232,0.4989 5.23846,0.74835 1.74617,0.24945 3.49234,0.4989 5.23849,0.74835 1.74617,0.24945 3.4798,0.61306 5.23848,0.74834 2.7359,0.21048 5.48794,0 8.23191,0 0.74837,0 1.49672,0 2.24506,0 0.74835,0 1.51906,-0.18147 2.24507,0 0.34224,0.0856 0.45482,0.55269 0.74835,0.74838 0.46411,0.3094 0.95557,0.61306 1.49672,0.74835 0.484,0.12099 1.00748,-0.0978 1.4967,0 0.77351,0.1547 1.47979,0.55702 2.24507,0.74834 0.24201,0.0605 0.49889,0 0.74834,0 0.4989,0 0.99783,0 1.49673,0 0.99779,0 1.99562,0 2.99341,0"
       id="path164" />
    <path
       style="fill:none;stroke:#000000;stroke-width:0.26458332px;stroke-linecap:butt;stroke-linejoin:miter;stroke-opacity:1"
       d="m 479.69535,337.3275 c 3.99121,0 7.98245,0 11.97366,0 0.99782,0 2.01499,0.19569 2.99342,0 1.54704,-0.3094 2.95957,-1.11405 4.49014,-1.49669 1.47203,-0.36804 3.00646,-0.43043 4.49013,-0.74838 17.39387,-4.34845 -4.36364,0.87273 11.22532,-2.24504 2.01708,-0.40344 3.9611,-1.13924 5.98683,-1.49672 1.49061,-0.26305 13.07336,-1.36946 14.21874,-1.49672 1.99562,-0.24945 3.99121,-0.4989 5.98683,-0.74835 1.74617,0 3.49835,0.14502 5.23849,0 1.26756,-0.10562 2.47504,-0.6332 3.74176,-0.74835 2.23586,-0.20325 4.49014,0 6.73521,0 4.24066,0 8.48135,0 12.72201,0"
       id="path166" />
    <path
       style="fill:none;stroke:#000000;stroke-width:0.26458332px;stroke-linecap:butt;stroke-linejoin:miter;stroke-opacity:1"
       d="m 588.20676,154.72896 c 6.23629,0 12.47259,0 18.70888,0 1.49672,0 3.01757,0.26774 4.49013,0 1.32168,-0.2403 2.44576,-1.14325 3.74177,-1.4967 1.46388,-0.39925 3.00889,-0.4192 4.49014,-0.74836 0.77004,-0.17112 1.46695,-0.61867 2.24504,-0.74836 0.73819,-0.12302 1.49672,0 2.24507,0 2.49451,0 4.98903,0 7.48355,0 6.73518,0 13.47039,0 20.20557,0"
       id="path168" />
    <path
       style="fill:none;stroke:#000000;stroke-width:0.26458332px;stroke-linecap:butt;stroke-linejoin:miter;stroke-opacity:1"
       d="m 518.60979,65.674758 c 3.74176,0 7.48355,0 11.22531,0 1.74617,0 3.49676,0.124409 5.23849,0 1.7594,-0.125672 3.4785,-0.631021 5.23848,-0.748353 1.99121,-0.132747 3.99122,0 5.98684,0 2.24507,0 4.49013,0 6.73518,0 6.98465,0 13.96931,0 20.95394,0 2.24507,0 4.49014,0 6.73521,0 4.59009,0 11.11919,-0.273037 15.71542,0.748353 2.08058,0.462349 3.91012,1.765818 5.98684,2.245066 1.21533,0.280456 2.49965,-0.112921 3.74179,0 1.51111,0.137374 3.02622,0.349112 4.49011,0.748353 5.92352,1.615501 1.49929,1.372412 6.73521,2.245063 2.49451,0.415753 0.62362,-0.623628 3.74176,0 0.54697,0.109392 0.97883,0.541198 1.49672,0.748356 1.70641,0.682569 2.19297,0.748355 3.74177,0.748355"
       id="path170" />
    <path
       style="fill:none;stroke:#000000;stroke-width:0.26458332px;stroke-linecap:butt;stroke-linejoin:miter;stroke-opacity:1"
       d="m 391.38949,28.257026 c 2.42356,-0.02975 4.4009,-1.856013 6.73518,-2.245064 0.73819,-0.123029 1.51906,0.181502 2.24507,0 1.30324,-0.325808 2.44579,-1.143254 3.74177,-1.49671 3.79656,-1.035421 5.75307,-0.748354 9.72862,-0.748354 4.29228,0 7.74118,-0.247526 11.97367,0.748354 3.01125,0.708525 11.65936,4.075133 14.21876,5.238482 3.04675,1.384893 5.91105,3.155694 8.98025,4.49013 2.67761,1.164183 5.50341,1.953998 8.2319,2.993417 0.87976,0.335153 11.77647,4.786772 13.47039,5.238482 5.71791,1.524781 4.71119,0.224195 10.47694,0.748356 1.02431,0.09312 1.97525,0.6029 2.99344,0.748355 0.74084,0.105833 1.4967,0 2.24505,0 0.74837,0 1.51905,0.181502 2.24506,0 0.34224,-0.08556 0.45482,-0.552669 0.74835,-0.748355 1.71985,-1.146551 1.49672,-0.06238 1.49672,-1.496708"
       id="path172" />
    <path
       style="fill:none;stroke:#000000;stroke-width:0.26458332px;stroke-linecap:butt;stroke-linejoin:miter;stroke-opacity:1"
       d="m 672.0225,36.488928 c 3.49232,0 6.98463,0 10.47695,0 0.74837,0 1.49672,0 2.24507,0 0.49889,0 1.0075,0.09784 1.49672,0 0.77351,-0.154705 1.46695,-0.618673 2.24507,-0.748356 0.73816,-0.123028 1.49669,0 2.24504,0 0.74837,0 1.49672,0 2.24507,0 3.24286,0 6.48575,0 9.72862,0 6.73518,0 13.47039,0 20.20557,0"
       id="path174" />
    <path
       style="fill:none;stroke:#000000;stroke-width:0.26458332px;stroke-linecap:butt;stroke-linejoin:miter;stroke-opacity:1"
       d="m 662.29388,111.32439 c 5.23848,0 10.47697,0 15.71546,0 0.74834,0 1.49669,0 2.24506,0 0.74835,0 1.50421,0.10584 2.24505,0 1.01819,-0.14545 1.9712,-0.63477 2.99344,-0.74835 2.72717,-0.30302 5.496,0.21045 8.23187,0 1.75872,-0.13529 3.50306,-0.43282 5.23849,-0.74835 4.70522,-0.8555 1.62523,-0.96414 7.48355,-1.49672 1.24214,-0.11292 2.49966,0.11293 3.74177,0 1.51114,-0.13737 2.97902,-0.61097 4.49014,-0.74835 9.15109,-0.83192 -1.08075,0.98852 6.7352,-0.74835 1.24167,-0.27593 2.48259,-0.56848 3.74177,-0.74836 0.98777,-0.14111 1.99562,0 2.99341,0 0.24945,0 0.51171,0.0789 0.74835,0 0.52917,-0.17639 0.95557,-0.61307 1.49672,-0.74835 0.484,-0.12101 1.02341,0.15776 1.4967,0 0.33467,-0.11156 0.43283,-0.59059 0.74837,-0.74836 0.2231,-0.11156 0.52523,0.11156 0.74835,0 0.31554,-0.15777 0.4328,-0.59059 0.74835,-0.74835 0.99782,-0.49891 0.74834,0.74835 0.74834,-0.74836"
       id="path176" />
    <path
       style="fill:none;stroke:#000000;stroke-width:0.26458332px;stroke-linecap:butt;stroke-linejoin:miter;stroke-opacity:1"
       d="m 645.83008,233.3062 c 4.49013,0 8.98024,0 13.47038,0 1.49672,0 3.01083,-0.22758 4.49014,0 1.79491,0.27615 3.46276,1.1162 5.23849,1.49672 1.72471,0.36958 3.51374,0.37876 5.23845,0.74835 9.6211,2.74888 1.00439,0.50021 9.72863,2.24506 2.49997,0.5 4.1212,1.23531 6.73518,1.49671 1.24108,0.12411 2.51465,-0.22312 3.74179,0 1.5522,0.28223 2.96804,1.0816 4.49011,1.49671 2.99622,0.81715 5.15146,0.81217 8.2319,1.49671 0.77007,0.17112 1.46698,0.61867 2.24507,0.74835 1.23029,0.20505 2.49452,0 3.74179,0 3.24287,0 6.48573,0 9.7286,0 0.24945,0 0.4989,0 0.74835,0 0.24944,0 0.57197,0.17639 0.74837,0 0.17637,-0.17638 -0.1764,-0.57196 0,-0.74835 0.37417,-0.37418 1.87087,0.37418 2.24504,0 0.1764,-0.17639 -0.17637,-0.57196 0,-0.74835 0.20008,-0.20007 3.26443,0.23867 3.74179,0 0.31552,-0.15777 0.43281,-0.59059 0.74835,-0.74836 0.29673,-0.14836 2.09209,0.15299 2.24507,0 0.1764,-0.17639 -0.1764,-0.57197 0,-0.74835 0.1764,-0.17639 0.4989,0 0.74835,0 0.24945,0 0.49889,0 0.74834,0"
       id="path178" />
    <path
       style="fill:none;stroke:#000000;stroke-width:0.26458332px;stroke-linecap:butt;stroke-linejoin:miter;stroke-opacity:1"
       d="m 619.63768,302.15482 c 9.16514,0 -2.20875,0.31555 5.23848,-0.74834 1.97554,-0.28223 3.99942,0.18068 5.98683,0 1.75665,-0.15971 3.48822,-0.52957 5.23849,-0.74835 2.24142,-0.28019 4.49527,-0.4562 6.73518,-0.74835 3.49813,-0.4563 6.95883,-1.23611 10.47697,-1.49672 3.234,-0.23955 6.48573,0 9.7286,0 3.49234,0 6.98648,0.11261 10.47697,0 30.01047,-0.96808 -3.46395,-0.74835 23.94736,-0.74835 5.86578,0 12.85732,-0.26932 18.70887,0.74835 4.25712,0.74038 11.79425,3.2779 15.71543,5.23849 2.10489,1.05243 3.98261,2.5084 5.98683,3.74176 1.23878,0.76232 2.57815,1.37234 3.74179,2.24507 0.84667,0.635 1.41864,1.58393 2.24507,2.24507 0.87111,0.69688 2.06518,0.87789 2.99342,1.49669 0.29352,0.19569 0.45481,0.55269 0.74834,0.74838 0.46411,0.3094 1.10228,0.35393 1.49672,0.74834 0.17638,0.1764 -0.11157,0.52525 0,0.74835 0.15775,0.31554 0.4989,0.4989 0.74835,0.74838"
       id="path180" />
    <path
       style="fill:none;stroke:#000000;stroke-width:0.26458332px;stroke-linecap:butt;stroke-linejoin:miter;stroke-opacity:1"
       d="m 588.20676,410.66627 c 2.11667,0 6.42522,0 7.48356,0 0.99779,0 2.01498,0.19568 2.99341,0 1.54705,-0.3094 2.9431,-1.18732 4.49014,-1.49672 2.21501,-0.44299 4.499,-0.42889 6.73518,-0.74835 3.00421,-0.42918 5.96898,-1.1203 8.98025,-1.49672 2.98061,-0.37256 5.98776,-0.48813 8.98028,-0.74835 2.74492,-0.23868 5.47944,-0.62325 8.2319,-0.74835 2.74114,-0.12459 5.48793,0 8.2319,0 9.0311,0 4.43926,0 13.47036,0 3.49234,0 6.98466,0 10.47697,0 1.24727,0 2.49883,-0.10358 3.74179,0 1.55242,0.12936 7.96163,1.17544 9.7286,1.4967 1.25145,0.22754 2.47965,0.5906 3.74179,0.74837 0.74255,0.0928 1.49669,0 2.24504,0 1.74617,0 3.49234,0 5.23849,0 0.24945,0 0.4989,0 0.74834,0 0.24948,0 0.57198,0.17637 0.74838,0 0.50837,-0.50839 -0.76518,-1.48831 0.74835,-2.24507 0.16772,-0.0839 2.81559,0 2.99341,0"
       id="path182" />
    <path
       style="fill:none;stroke:#000000;stroke-width:0.26458332px;stroke-linecap:butt;stroke-linejoin:miter;stroke-opacity:1"
       d="m 480.44369,482.50832 c 13.47039,0 26.94078,0 40.41116,0 4.72634,0 11.088,-0.22585 15.71546,0.74834 2.08558,0.43908 3.92748,1.6959 5.98683,2.24507 1.70432,0.45448 3.54246,0.26377 5.23849,0.74835 1.82666,0.52192 3.40564,1.74522 5.23846,2.24507 0.0885,0.0241 5.77413,-0.0236 5.98686,0 1.26418,0.14047 2.47962,0.59058 3.74176,0.74835 0.74258,0.0928 1.49672,0 2.24507,0 1.74614,0 3.49231,0 5.23848,0"
       id="path184" />
    <path
       style="fill:none;stroke:#000000;stroke-width:0.26458332px;stroke-linecap:butt;stroke-linejoin:miter;stroke-opacity:1"
       d="m 674.26754,484.00501 c 3.08219,-0.51369 7.47999,-1.3094 10.47698,-1.49669 1.99173,-0.12449 3.9943,0.1107 5.98683,0 2.50312,-0.13907 4.97972,-0.62318 7.48355,-0.74838 2.4914,-0.12456 4.98904,0 7.48356,0 5.73738,0 11.47476,0 17.21215,0 14.71763,0 29.43529,0 44.15292,0"
       id="path186" />
    <path
       style="fill:none;stroke:#000000;stroke-width:0.26458332px;stroke-linecap:butt;stroke-linejoin:miter;stroke-opacity:1"
       d="m 289.61326,521.42276 c 1.49672,-0.4989 2.94309,-1.18732 4.49013,-1.49673 11.66551,-2.33309 -8.87097,3.71198 7.48353,-0.74834 6.51955,-1.77806 0.97438,-1.6591 8.98028,-2.99342 0.005,0 16.42554,-1.49288 16.4638,-1.49672 2.24766,-0.22476 4.52475,-0.283 6.73518,-0.74835 2.5485,-0.53652 4.91464,-1.81692 7.48356,-2.24507 1.96844,-0.32805 3.99121,0 5.98683,0 4.24066,0 8.48135,0 12.72201,0 3.97555,0 5.93207,-0.28704 9.72863,0.74838 1.296,0.35345 2.4793,1.03761 3.74176,1.49669 2.22403,0.80875 4.49014,1.49672 6.73521,2.24507 0.74834,0.24945 1.56863,0.3425 2.24507,0.74835 1.04695,0.6282 1.53794,2.20382 2.24504,1.49672 0.1764,-0.1764 0,-0.4989 0,-0.74835"
       id="path188" />
    <path
       style="fill:none;stroke:#000000;stroke-width:0.26458332px;stroke-linecap:butt;stroke-linejoin:miter;stroke-opacity:1"
       d="m 440.03256,552.85364 c 6.47369,0 -0.081,0.31554 5.23846,-0.74835 1.72963,-0.34591 3.4807,-0.60187 5.23848,-0.74834 1.24296,-0.10359 2.50547,0.16483 3.74179,0 2.52159,-0.33624 4.95007,-1.26641 7.48353,-1.49673 2.98114,-0.27101 5.98686,0 8.98028,0 3.49231,0 6.98463,0 10.47694,0 6.98466,0 13.96931,0 20.95394,0 3.74177,0 7.48356,0 11.22532,0 2.74397,0 5.49135,-0.13702 8.2319,0 2.25608,0.11282 4.48133,0.5981 6.73521,0.74835 2.98677,0.19913 6.00514,-0.33054 8.98025,0 0.78401,0.0871 1.47153,0.59367 2.24507,0.74838 0.97843,0.19568 2.04681,-0.31555 2.99341,0 0.33467,0.11154 0.4989,0.49889 0.74835,0.74834"
       id="path190" />
    <path
       style="fill:none;stroke:#000000;stroke-width:0.26458332px;stroke-linecap:butt;stroke-linejoin:miter;stroke-opacity:1"
       d="m 605.41891,548.36353 c 12.22315,0 24.44626,0 36.6694,0 2.49452,0 5.0119,-0.33705 7.48353,0 3.05726,0.41688 5.94035,1.71638 8.98028,2.24504 2.71451,0.4721 5.51735,0.27628 8.2319,0.74838 3.0399,0.52866 5.94034,1.71637 8.98025,2.24507 2.71454,0.47206 5.48793,0.49889 8.2319,0.74834 2.74397,0.24945 5.48137,0.58656 8.2319,0.74835 1.49413,0.0879 2.99342,0 4.49014,0 1.74614,0 3.49231,0 5.23846,0 0.99782,0 2.00564,-0.1411 2.99344,0 6.34283,0.90612 -0.83611,0.74835 3.74176,0.74835"
       id="path192" />
    <path
       style="fill:none;stroke:#000000;stroke-width:0.26458332px;stroke-linecap:butt;stroke-linejoin:miter;stroke-opacity:1"
       d="m 179.60512,566.32403 c 1.74616,0 3.51263,0.26551 5.23848,0 1.55933,-0.2399 2.95286,-1.14194 4.49013,-1.4967 1.71872,-0.39663 3.49232,-0.49892 5.23848,-0.74837 1.74617,-0.24945 3.47979,-0.61307 5.23849,-0.74835 1.4923,-0.1148 2.99341,0 4.49013,0 1.99561,0 3.99122,0 5.98683,0 1.74616,0 3.53109,-0.36586 5.23848,0 1.8576,0.39807 3.42273,1.68638 5.23849,2.24507 8.14368,2.50574 1.06206,-1.48772 8.2319,2.99342 0.7627,0.47667 1.47383,1.03396 2.24506,1.49672 0.1296,0.0777 2.96657,1.46984 2.99342,1.49669 0.17639,0.1764 0,0.4989 0,0.74835"
       id="path194" />
  </g>
  <g
     id="layer4">
    <path
       style="fill:none;stroke:#000000;stroke-width:0.96499997;stroke-linecap:butt;stroke-linejoin:miter;stroke-miterlimit:4;stroke-dasharray:none;stroke-opacity:1"
       d="M 107.49067,-0.18045176 C 106.74232,153.23226 115.72257,260.24697 115.72257,260.24697 l -11.22532,159.39955 3.74178,180.35346"
       id="path197" />
    <path
       style="fill:none;stroke:#000000;stroke-width:0.96499997;stroke-linecap:butt;stroke-linejoin:miter;stroke-miterlimit:4;stroke-dasharray:none;stroke-opacity:1"
       d="M 220.65819,-0.18045176 C 225.14832,66.423113 217.66477,158.47074 217.66477,158.47074 l 12.72203,150.41929 -8.2319,131.71043 c 1.49671,159.39954 1.49671,160.14789 1.49671,160.14789"
       id="path1004" />
    <path
       style="fill:none;stroke:#000000;stroke-width:0.96499997;stroke-linecap:butt;stroke-linejoin:miter;stroke-miterlimit:4;stroke-dasharray:none;stroke-opacity:1"
       d="m 338.49746,-0.18045176 -2.99345,166.88309176 8.23191,151.16764 -8.98025,141.43903 2.24507,141.43905"
       id="path1006" />
    <path
       style="fill:none;stroke:#000000;stroke-width:0.96499997;stroke-linecap:butt;stroke-linejoin:miter;stroke-miterlimit:4;stroke-dasharray:none;stroke-opacity:1"
       d="m 454.18876,-0.18045176 5.98683,116.74333176 -7.48356,127.96865 -4.49011,118.24002 6.73518,124.22688 -3.74176,114.49827"
       id="path1008" />
    <path
       style="fill:none;stroke:#000000;stroke-width:0.96499997;stroke-linecap:butt;stroke-linejoin:miter;stroke-miterlimit:4;stroke-dasharray:none;stroke-opacity:1"
       d="m 563.94012,0.5679029 6.73518,180.3534771 -6.73518,136.20055 11.22532,137.69726 -5.23849,144.43245"
       id="path1010" />
    <path
       style="fill:none;stroke:#000000;stroke-width:0.96499997;stroke-linecap:butt;stroke-linejoin:miter;stroke-miterlimit:4;stroke-dasharray:none;stroke-opacity:1"
       d="m 688.28906,1.3162576 -3.74176,169.1281524 8.98025,164.63802 -4.49014,121.23346 4.49014,144.43247"
       id="path1012" />
    <path
       style="fill:none;stroke:#000000;stroke-width:0.965;stroke-linecap:butt;stroke-linejoin:miter;stroke-opacity:1;stroke-miterlimit:4;stroke-dasharray:none"
       d="m 0,197.38518 278.38794,-5.23848 264.91755,14.21874 179.60512,-3.74178 77.82888,-0.74835"
       id="path1014" />
    <path
       style="fill:none;stroke:#000000;stroke-width:0.965;stroke-linecap:butt;stroke-linejoin:miter;stroke-opacity:1;stroke-miterlimit:4;stroke-dasharray:none"
       d="m 801.48786,387.46726 -282.12973,8.98027 -214.02942,-5.98686 -175.115,-1.49669 L 0,392.70574"
       id="path1016" />
    <g
       id="text1020"
       style="font-style:normal;font-variant:normal;font-weight:normal;font-stretch:normal;font-size:50.79999924px;line-height:1.25;font-family:sans-serif;-inkscape-font-specification:'sans-serif, Normal';font-variant-ligatures:normal;font-variant-caps:normal;font-variant-numeric:normal;text-align:start;letter-spacing:0px;word-spacing:0px;writing-mode:lr-tb;text-anchor:start;fill:#000000;fill-opacity:1;stroke:none;stroke-width:0.26458332"
       aria-label="1">
      <path
         id="path78478"
         style="stroke-width:0.26458332"
         d="M 71.78956,114.31781 H 51.796982 v -3.77031 h 7.689453 V 85.79242 h -7.689453 v -3.373438 q 1.562696,0 3.348633,-0.248046 1.785938,-0.272852 2.703711,-0.768946 1.141016,-0.620117 1.785938,-1.562695 0.669726,-0.967383 0.768945,-2.579688 h 3.844726 V 110.5475 h 7.540625 z" />
    </g>
  </g>
</svg>
